O|VAR|FDC40VE101||..\FDC40_h.fgi|167|573|Gidra:regulgeoel|
O|VAR|FDC40VE201||..\FDC40_h.fgi|93|573|Gidra:regulgeoel|
O|VAR|FDC40VP101||..\FDC40_h.fgi|93|553|Gidra:regulgeoel|
O|VAR|UKG1PC1||..\FDC40_h.fgi|69|697|Gidra:valvegeo|
O|VAR|FDC40_h$79User||..\FDC40_h.fgi|179|697|Gidra:valvegeo|
R|VAR|Loc||..\FDC40_h.fgi|151|703|SString|
X|SOCK|FDC40_h.UKG1WL_CON||..\FDC40_h.fgi|157|589|Socket|
X|SOCK|FDC40_h.UKG1WL_CON||..\FDC40_h.fgi|56|671|Socket|
X|SOCK|FDC40_h.UKG1VAC_CON||..\FDC40_h.fgi|190|573|Socket|
X|SOCK|FDC40_h.UKG1VAC_CON||..\FDC40_h.fgi|98|649|Socket|
O|VAR|FDC40CT001||..\FDC40_h.fgi|98|591|Gidra:transtlev|
O|VAR|FDC40VE102||..\FDC40_h.fgi|167|512|Gidra:regulgeoel|
O|VAR|FDC40VE202||..\FDC40_h.fgi|93|512|Gidra:regulgeoel|
O|VAR|FDC40VP102||..\FDC40_h.fgi|93|492|Gidra:regulgeoel|
X|SOCK|FDC40_h.UKG1WL_CON||..\FDC40_h.fgi|157|528|Socket|
X|SOCK|FDC40_h.UKG1VAC_CON||..\FDC40_h.fgi|190|512|Socket|
O|VAR|FDC40CT002||..\FDC40_h.fgi|98|530|Gidra:transtlev|
O|VAR|FDC40VE103||..\FDC40_h.fgi|166|451|Gidra:regulgeoel|
O|VAR|FDC40VE203||..\FDC40_h.fgi|92|451|Gidra:regulgeoel|
O|VAR|FDC40VP103||..\FDC40_h.fgi|92|431|Gidra:regulgeoel|
X|SOCK|FDC40_h.UKG1WL_CON||..\FDC40_h.fgi|156|467|Socket|
X|SOCK|FDC40_h.UKG1VAC_CON||..\FDC40_h.fgi|189|451|Socket|
O|VAR|FDC40CT003||..\FDC40_h.fgi|97|469|Gidra:transtlev|
O|VAR|FDC40VE104||..\FDC40_h.fgi|166|390|Gidra:regulgeoel|
O|VAR|FDC40VE204||..\FDC40_h.fgi|92|390|Gidra:regulgeoel|
O|VAR|FDC40VP104||..\FDC40_h.fgi|92|370|Gidra:regulgeoel|
X|SOCK|FDC40_h.UKG1WL_CON||..\FDC40_h.fgi|156|406|Socket|
X|SOCK|FDC40_h.UKG1VAC_CON||..\FDC40_h.fgi|189|390|Socket|
O|VAR|FDC40CT004||..\FDC40_h.fgi|97|408|Gidra:transtlev|
O|VAR|FDC40VE105||..\FDC40_h.fgi|164|329|Gidra:regulgeoel|
O|VAR|FDC40VE205||..\FDC40_h.fgi|90|329|Gidra:regulgeoel|
O|VAR|FDC40VP105||..\FDC40_h.fgi|90|309|Gidra:regulgeoel|
X|SOCK|FDC40_h.UKG1WL_CON||..\FDC40_h.fgi|154|345|Socket|
X|SOCK|FDC40_h.UKG1VAC_CON||..\FDC40_h.fgi|187|329|Socket|
O|VAR|FDC40CT005||..\FDC40_h.fgi|95|347|Gidra:transtlev|
O|VAR|FDC40VE106||..\FDC40_h.fgi|164|268|Gidra:regulgeoel|
O|VAR|FDC40VE206||..\FDC40_h.fgi|90|268|Gidra:regulgeoel|
O|VAR|FDC40VP106||..\FDC40_h.fgi|90|248|Gidra:regulgeoel|
X|SOCK|FDC40_h.UKG1WL_CON||..\FDC40_h.fgi|154|284|Socket|
X|SOCK|FDC40_h.UKG1VAC_CON||..\FDC40_h.fgi|187|268|Socket|
O|VAR|FDC40CT006||..\FDC40_h.fgi|95|286|Gidra:transtlev|
O|VAR|FDC40VE107||..\FDC40_h.fgi|163|207|Gidra:regulgeoel|
O|VAR|FDC40VE207||..\FDC40_h.fgi|89|207|Gidra:regulgeoel|
O|VAR|FDC40VP107||..\FDC40_h.fgi|89|187|Gidra:regulgeoel|
X|SOCK|FDC40_h.UKG1WL_CON||..\FDC40_h.fgi|153|223|Socket|
X|SOCK|FDC40_h.UKG1VAC_CON||..\FDC40_h.fgi|186|207|Socket|
O|VAR|FDC40CT007||..\FDC40_h.fgi|94|225|Gidra:transtlev|
O|VAR|FDC40VE108||..\FDC40_h.fgi|164|150|Gidra:regulgeoel|
O|VAR|FDC40VE208||..\FDC40_h.fgi|90|150|Gidra:regulgeoel|
O|VAR|FDC40VP108||..\FDC40_h.fgi|90|130|Gidra:regulgeoel|
X|SOCK|FDC40_h.UKG1WL_CON||..\FDC40_h.fgi|154|166|Socket|
X|SOCK|FDC40_h.UKG1VAC_CON||..\FDC40_h.fgi|187|150|Socket|
O|VAR|FDC40CT008||..\FDC40_h.fgi|95|168|Gidra:transtlev|
O|VAR|FDC40VE109||..\FDC40_h.fgi|163|91|Gidra:regulgeoel|
O|VAR|FDC40VE209||..\FDC40_h.fgi|89|91|Gidra:regulgeoel|
O|VAR|FDC40VP109||..\FDC40_h.fgi|89|71|Gidra:regulgeoel|
X|SOCK|FDC40_h.UKG1WL_CON||..\FDC40_h.fgi|153|107|Socket|
X|SOCK|FDC40_h.UKG1VAC_CON||..\FDC40_h.fgi|186|91|Socket|
O|VAR|FDC40CT009||..\FDC40_h.fgi|94|109|Gidra:transtlev|
O|VAR|FDC40VE110||..\FDC40_h.fgi|164|34|Gidra:regulgeoel|
O|VAR|FDC40VE210||..\FDC40_h.fgi|90|34|Gidra:regulgeoel|
O|VAR|FDC40VP110||..\FDC40_h.fgi|90|14|Gidra:regulgeoel|
X|SOCK|FDC40_h.UKG1WL_CON||..\FDC40_h.fgi|154|50|Socket|
X|SOCK|FDC40_h.UKG1VAC_CON||..\FDC40_h.fgi|187|34|Socket|
O|VAR|FDC40CT010||..\FDC40_h.fgi|95|52|Gidra:transtlev|
O|VAR|FDC40VE111||..\FDC40_h.fgi|370|573|Gidra:regulgeoel|
O|VAR|FDC40VE211||..\FDC40_h.fgi|296|573|Gidra:regulgeoel|
O|VAR|FDC40VP111||..\FDC40_h.fgi|296|553|Gidra:regulgeoel|
O|VAR|UKG2PC1||..\FDC40_h.fgi|272|697|Gidra:valvegeo|
O|VAR|FDC40_h$159User||..\FDC40_h.fgi|382|697|Gidra:valvegeo|
R|VAR|Loc||..\FDC40_h.fgi|354|703|SString|
X|SOCK|FDC40_h.UKG2WL_CON||..\FDC40_h.fgi|360|589|Socket|
X|SOCK|FDC40_h.UKG2WL_CON||..\FDC40_h.fgi|259|671|Socket|
X|SOCK|FDC40_h.UKG2VAC_CON||..\FDC40_h.fgi|393|573|Socket|
X|SOCK|FDC40_h.UKG2VAC_CON||..\FDC40_h.fgi|301|649|Socket|
O|VAR|FDC40CT011||..\FDC40_h.fgi|301|591|Gidra:transtlev|
O|VAR|FDC40VE112||..\FDC40_h.fgi|370|512|Gidra:regulgeoel|
O|VAR|FDC40VE212||..\FDC40_h.fgi|296|512|Gidra:regulgeoel|
O|VAR|FDC40VP112||..\FDC40_h.fgi|296|492|Gidra:regulgeoel|
X|SOCK|FDC40_h.UKG2WL_CON||..\FDC40_h.fgi|360|528|Socket|
X|SOCK|FDC40_h.UKG2VAC_CON||..\FDC40_h.fgi|393|512|Socket|
O|VAR|FDC40CT012||..\FDC40_h.fgi|301|530|Gidra:transtlev|
O|VAR|FDC40VE113||..\FDC40_h.fgi|369|451|Gidra:regulgeoel|
O|VAR|FDC40VE213||..\FDC40_h.fgi|295|451|Gidra:regulgeoel|
O|VAR|FDC40VP113||..\FDC40_h.fgi|295|431|Gidra:regulgeoel|
X|SOCK|FDC40_h.UKG2WL_CON||..\FDC40_h.fgi|359|467|Socket|
X|SOCK|FDC40_h.UKG2VAC_CON||..\FDC40_h.fgi|392|451|Socket|
O|VAR|FDC40CT013||..\FDC40_h.fgi|300|469|Gidra:transtlev|
O|VAR|FDC40VE114||..\FDC40_h.fgi|369|390|Gidra:regulgeoel|
O|VAR|FDC40VE214||..\FDC40_h.fgi|295|390|Gidra:regulgeoel|
O|VAR|FDC40VP114||..\FDC40_h.fgi|295|370|Gidra:regulgeoel|
X|SOCK|FDC40_h.UKG1WL_CON||..\FDC40_h.fgi|359|406|Socket|
X|SOCK|FDC40_h.UKG2VAC_CON||..\FDC40_h.fgi|392|390|Socket|
O|VAR|FDC40CT014||..\FDC40_h.fgi|300|408|Gidra:transtlev|
O|VAR|FDC40VE115||..\FDC40_h.fgi|367|329|Gidra:regulgeoel|
O|VAR|FDC40VE215||..\FDC40_h.fgi|293|329|Gidra:regulgeoel|
O|VAR|FDC40VP115||..\FDC40_h.fgi|293|309|Gidra:regulgeoel|
X|SOCK|FDC40_h.UKG2WL_CON||..\FDC40_h.fgi|357|345|Socket|
X|SOCK|FDC40_h.UKG2VAC_CON||..\FDC40_h.fgi|390|329|Socket|
O|VAR|FDC40CT015||..\FDC40_h.fgi|298|347|Gidra:transtlev|
O|VAR|FDC40VE116||..\FDC40_h.fgi|367|268|Gidra:regulgeoel|
O|VAR|FDC40VE216||..\FDC40_h.fgi|293|268|Gidra:regulgeoel|
O|VAR|FDC40VP116||..\FDC40_h.fgi|293|248|Gidra:regulgeoel|
X|SOCK|FDC40_h.UKG2WL_CON||..\FDC40_h.fgi|357|284|Socket|
X|SOCK|FDC40_h.UKG2VAC_CON||..\FDC40_h.fgi|390|268|Socket|
O|VAR|FDC40CT016||..\FDC40_h.fgi|298|286|Gidra:transtlev|
O|VAR|FDC40VE117||..\FDC40_h.fgi|366|207|Gidra:regulgeoel|
O|VAR|FDC40VE217||..\FDC40_h.fgi|292|207|Gidra:regulgeoel|
O|VAR|FDC40VP117||..\FDC40_h.fgi|292|187|Gidra:regulgeoel|
X|SOCK|FDC40_h.UKG2WL_CON||..\FDC40_h.fgi|356|223|Socket|
X|SOCK|FDC40_h.UKG2VAC_CON||..\FDC40_h.fgi|389|207|Socket|
O|VAR|FDC40CT017||..\FDC40_h.fgi|297|225|Gidra:transtlev|
O|VAR|FDC40VE118||..\FDC40_h.fgi|367|150|Gidra:regulgeoel|
O|VAR|FDC40VE218||..\FDC40_h.fgi|293|150|Gidra:regulgeoel|
O|VAR|FDC40VP118||..\FDC40_h.fgi|293|130|Gidra:regulgeoel|
X|SOCK|FDC40_h.UKG2WL_CON||..\FDC40_h.fgi|357|166|Socket|
X|SOCK|FDC40_h.UKG2VAC_CON||..\FDC40_h.fgi|390|150|Socket|
O|VAR|FDC40CT018||..\FDC40_h.fgi|298|168|Gidra:transtlev|
O|VAR|FDC40VE119||..\FDC40_h.fgi|366|91|Gidra:regulgeoel|
O|VAR|FDC40VE219||..\FDC40_h.fgi|292|91|Gidra:regulgeoel|
O|VAR|FDC40VP119||..\FDC40_h.fgi|292|71|Gidra:regulgeoel|
X|SOCK|FDC40_h.UKG2WL_CON||..\FDC40_h.fgi|356|107|Socket|
X|SOCK|FDC40_h.UKG2VAC_CON||..\FDC40_h.fgi|389|91|Socket|
O|VAR|FDC40CT019||..\FDC40_h.fgi|297|109|Gidra:transtlev|
O|VAR|FDC40VE120||..\FDC40_h.fgi|367|34|Gidra:regulgeoel|
O|VAR|FDC40VE220||..\FDC40_h.fgi|293|34|Gidra:regulgeoel|
O|VAR|FDC40VP120||..\FDC40_h.fgi|293|14|Gidra:regulgeoel|
X|SOCK|FDC40_h.UKG2WL_CON||..\FDC40_h.fgi|357|50|Socket|
X|SOCK|FDC40_h.UKG2VAC_CON||..\FDC40_h.fgi|390|34|Socket|
O|VAR|FDC40CT020||..\FDC40_h.fgi|298|52|Gidra:transtlev|
