R|VAR|BLOCK_ELE|-1|..\SRG_vlv.fgi|37|773|Gidra:pump2_handler|
R|VAR|BLOCK_ELE|-1|..\SRG_vlv.fgi|50|773|Gidra:pump2_handler|
R|VAR|BLOCK_ELE|-1|..\SRG_vlv.fgi|64|773|Gidra:pump2_handler|
R|VAR|BLOCK_ELE|-1|..\SRG_vlv.fgi|78|773|Gidra:pump2_handler|
R|VAR|BLOCK_ELE|-1|..\SRG_vlv.fgi|92|773|Gidra:pump2_handler|
R|VAR|BLOCK_ELE|-1|..\SRG_vlv.fgi|106|773|Gidra:pump2_handler|
R|VAR|BLOCK_ELE|-1|..\SRG_vlv.fgi|120|773|Gidra:pump2_handler|
R|VAR|BLOCK_ELE|-1|..\SRG_vlv.fgi|134|773|Gidra:pump2_handler|
R|VAR|BLOCK_ELE|-1|..\SRG_vlv.fgi|148|773|Gidra:pump2_handler|
R|VAR|BLOCK_ELE|-1|..\SRG_vlv.fgi|162|773|Gidra:pump2_handler|
R|VAR|BLOCK_ELE|-1|..\SRG_vlv.fgi|176|773|Gidra:pump2_handler|
R|VAR|BLOCK_ELE|-1|..\SRG_vlv.fgi|37|747|Gidra:pump2_handler|
R|VAR|BLOCK_ELE|-1|..\SRG_vlv.fgi|50|747|Gidra:pump2_handler|
R|VAR|BLOCK_ELE|-1|..\SRG_vlv.fgi|64|747|Gidra:pump2_handler|
R|VAR|BLOCK_ELE|-1|..\SRG_vlv.fgi|78|747|Gidra:pump2_handler|
R|VAR|BLOCK_ELE|-1|..\SRG_vlv.fgi|92|747|Gidra:pump2_handler|
R|VAR|BLOCK_ELE|-1|..\SRG_vlv.fgi|106|747|Gidra:pump2_handler|
R|VAR|BLOCK_ELE|-1|..\SRG_vlv.fgi|120|747|Gidra:pump2_handler|
R|VAR|BLOCK_ELE|-1|..\SRG_vlv.fgi|134|747|Gidra:pump2_handler|
R|VAR|BLOCK_ELE|-1|..\SRG_vlv.fgi|822|289.23|Gidra:pump_handler|
R|VAR|20SRG10CF017XQ01_input|0|..\SRG_vlv.fgi|26|546|Gidra:dat_ana_2_handler|
O|VAR|20SRG10CF017XQ01_input||..\SRG_init.fgi|164|316|Socket|
R|VAR|20SRG10CU028XQ01_input|0|..\SRG_vlv.fgi|451.5|211|Gidra:dat_ana_2_handler|
O|VAR|20SRG10CU028XQ01_input||..\SRG_init_1.fgi|162|85|Socket|
R|VAR|20SRG10CF018XQ01_input|0|..\SRG_vlv.fgi|55|546|Gidra:dat_ana_2_handler|
O|VAR|20SRG10CF018XQ01_input||..\SRG_init.fgi|164|321|Socket|
R|VAR|20SRG10CU029XQ01_input|0|..\SRG_vlv.fgi|451.5|198|Gidra:dat_ana_2_handler|
O|VAR|20SRG10CU029XQ01_input||..\SRG_init_1.fgi|162|77|Socket|
R|VAR|20SRG10CP017XQ01||..\SRG_logic.fgi|117|210|Socket|
R|VAR|20SRG10CP017XQ01||..\SRG_logic.fgi|31|149|Socket|
R|VAR|20SRG10CP017XQ01|-1|..\SRG_logic.fgi|150.75|314.98|Gidra:reg_ras_man|
O|VAR|20SRG10CP017XQ01|-1|..\SRG_vlv.fgi|197|546|Gidra:dat_ana_patm_handler|
R|VAR|20SRG10CP011XQ01_up_alarm_setpoint||..\SRG_logic.fgi|120|226|Socket|
R|VAR|20SRG10CP011XQ01_up_alarm_setpoint||..\SRG_logic.fgi|34|189|Socket|
O|VAR|20SRG10CP011XQ01_up_alarm_setpoint|-1|..\SRG_vlv.fgi|197|588|Gidra:dat_ana_patm_handler|
R|VAR|20SRG10CF019XQ01_input|0|..\SRG_vlv.fgi|26|532|Gidra:dat_ana_2_handler|
O|VAR|20SRG10CF019XQ01_input||..\SRG_init.fgi|164|281|Socket|
R|VAR|20SRG10CP051XQ01_input|0|..\SRG_vlv.fgi|427.5|517|Gidra:dat_ana_patm_handler|
O|VAR|20SRG10CP051XQ01_input||..\SRG_init_1.fgi|74|269|Socket|
R|VAR|20SRG10CP052XQ01_input|0|..\SRG_vlv.fgi|427.5|504|Gidra:dat_ana_patm_handler|
O|VAR|20SRG10CP052XQ01_input||..\SRG_init_1.fgi|74|265|Socket|
R|VAR|20SRG10CP053XQ01_input|0|..\SRG_vlv.fgi|502.5|530|Gidra:dat_ana_patm_handler|
O|VAR|20SRG10CP053XQ01_input||..\SRG_init_1.fgi|74|261|Socket|
O|VAR|20SRG10AA121YA21||..\SRG_logic.fgi|173.5|197|Socket|
R|VAR|20SRG10AA121YA21|-1|..\SRG_vlv.fgi|521|749|Gidra:klapan_man|
O|VAR|20SRG10AA121YA22||..\SRG_logic.fgi|79|119|Socket|
R|VAR|20SRG10AA121YA22|-1|..\SRG_vlv.fgi|521|749|Gidra:klapan_man|
R|VAR|20SRG10CP054XQ01_input|0|..\SRG_vlv.fgi|427.5|556|Gidra:dat_ana_patm_handler|
O|VAR|20SRG10CP054XQ01_input||..\SRG_init_1.fgi|74|281|Socket|
R|VAR|20SRG10CP017XQ01_up_alarm_setpoint||..\SRG_logic.fgi|120|208|Socket|
R|VAR|20SRG10CP017XQ01_up_alarm_setpoint||..\SRG_logic.fgi|34|147|Socket|
O|VAR|20SRG10CP017XQ01_up_alarm_setpoint|-1|..\SRG_vlv.fgi|197|546|Gidra:dat_ana_patm_handler|
R|VAR|20SRG10CP055XQ01_input|0|..\SRG_vlv.fgi|427.5|543|Gidra:dat_ana_patm_handler|
O|VAR|20SRG10CP055XQ01_input||..\SRG_init_1.fgi|74|277|Socket|
O|VAR|20SRG10CQ019XQ01|-1|..\SRG_vlv.fgi|112.5|210|Gidra:dat_ana_2_handler|
R|VAR|20SRG10CQ019XQ01|-1|..\SRG_vlv.fgi|722.75|302.98|Gidra:reg_ras_man|
I|SOCK|20SRG10CP015XQ01_up_alarm_setpoint||..\SRG_logic.fgi|120|214|Socket|
I|SOCK|20SRG10CP015XQ01_up_alarm_setpoint||..\SRG_logic.fgi|34|161|Socket|
R|VAR|20SRG10AA256XH51||..\SRG_logic.fgi|210.5|195|Socket|
O|VAR|20SRG10AA256XH51|0|..\SRG_vlv.fgi|533|653|Gidra:klapan_man|
R|VAR|20SRG10CT051XQ01_input|0|..\SRG_vlv.fgi|477.5|556|Gidra:dat_ana_2_handler|
O|VAR|20SRG10CT051XQ01_input||..\SRG_init_1.fgi|74|229|Socket|
R|VAR|20SRG10CP056XQ01_input|0|..\SRG_vlv.fgi|427.5|530|Gidra:dat_ana_patm_handler|
O|VAR|20SRG10CP056XQ01_input||..\SRG_init_1.fgi|74|273|Socket|
O|VAR|20SRG10AA119YA21||..\SRG_logic.fgi|173.5|203|Socket|
R|VAR|20SRG10AA119YA21|-1|..\SRG_vlv.fgi|493|749|Gidra:klapan_man|
O|VAR|20SRG10AA119YA22||..\SRG_logic.fgi|79|133|Socket|
R|VAR|20SRG10AA119YA22|-1|..\SRG_vlv.fgi|493|749|Gidra:klapan_man|
R|VAR|20SRG10AA324XH51||..\SRG_logic.fgi|450.5|195|Socket|
O|VAR|20SRG10AA324XH51|0|..\SRG_vlv.fgi|718|629|Gidra:klapan_man|
R|VAR|20SRG10CT052XQ01_input|0|..\SRG_vlv.fgi|552.5|556|Gidra:dat_ana_2_handler|
O|VAR|20SRG10CT052XQ01_input||..\SRG_init_1.fgi|74|221|Socket|
O|VAR|20SRG10AA256YA21||..\SRG_logic.fgi|278.5|240|Socket|
R|VAR|20SRG10AA256YA21|-1|..\SRG_vlv.fgi|533|653|Gidra:klapan_man|
R|VAR|20SRG10CP057XQ01_input|0|..\SRG_vlv.fgi|502.5|543|Gidra:dat_ana_patm_handler|
O|VAR|20SRG10CP057XQ01_input||..\SRG_init_1.fgi|336|281|Socket|
I|SOCK|20SRG10CP005XQ01||..\SRG_logic.fgi|117|246|Socket|
I|SOCK|20SRG10CP005XQ01||..\SRG_logic.fgi|31|233|Socket|
O|VAR|20SRG10AA324YA21||..\SRG_logic.fgi|518.5|240|Socket|
R|VAR|20SRG10AA324YA21|-1|..\SRG_vlv.fgi|718|629|Gidra:klapan_man|
O|VAR|20SRG10CQ010XQ01|-1|..\SRG_vlv.fgi|112.5|406|Gidra:dat_ana_2_handler|
R|VAR|20SRG10CQ010XQ01|-1|..\SRG_vlv.fgi|671.75|356.98|Gidra:reg_ras_man|
R|VAR|20SRG10CT053XQ01_input|0|..\SRG_vlv.fgi|452.5|504|Gidra:dat_ana_2_handler|
O|VAR|20SRG10CT053XQ01_input||..\SRG_init_1.fgi|74|213|Socket|
R|VAR|20SRG10CU030XQ01_input|0|..\SRG_vlv.fgi|451.5|185|Gidra:dat_ana_2_handler|
O|VAR|20SRG10CU030XQ01_input||..\SRG_init_1.fgi|162|69|Socket|
R|VAR|20SRG10CP058XQ01_input|0|..\SRG_vlv.fgi|502.5|556|Gidra:dat_ana_2_handler|
O|VAR|20SRG10CP058XQ01_input||..\SRG_init_1.fgi|74|185|Socket|
R|VAR|20SRG10AA285XH51||..\SRG_logic.fgi|329.5|215|Socket|
O|VAR|20SRG10AA285XH51|0|..\SRG_vlv.fgi|422|354|Gidra:klapan_man|
O|VAR|20SRG10AA110YA21||..\SRG_logic.fgi|79|184|Socket|
R|VAR|20SRG10AA110YA21|-1|..\SRG_vlv.fgi|367|749|Gidra:klapan_man|
R|VAR|20SRG10CF020XQ01_input|0|..\SRG_vlv.fgi|55|532|Gidra:dat_ana_2_handler|
O|VAR|20SRG10CF020XQ01_input||..\SRG_init.fgi|164|286|Socket|
R|VAR|20SRG10CT054XQ01_input|0|..\SRG_vlv.fgi|451.5|303|Gidra:dat_ana_2_handler|
O|VAR|20SRG10CT054XQ01_input||..\SRG_init_1.fgi|162|229|Socket|
R|VAR|20SRG10CU031XQ01_input|0|..\SRG_vlv.fgi|725.5|491|Gidra:dat_ana_2_handler|
O|VAR|20SRG10CU031XQ01_input||..\SRG_init_1.fgi|248|181|Socket|
R|VAR|20SRG10CP059XQ01_input|0|..\SRG_vlv.fgi|476.5|290|Gidra:dat_ana_patm_handler|
O|VAR|20SRG10CP059XQ01_input||..\SRG_init_1.fgi|162|269|Socket|
O|VAR|20SRG10AA285YA21||..\SRG_logic.fgi|397.5|260|Socket|
R|VAR|20SRG10AA285YA21|-1|..\SRG_vlv.fgi|422|354|Gidra:klapan_man|
R|VAR|20SRG10CF021XQ01_input|0|..\SRG_vlv.fgi|26|518|Gidra:dat_ana_2_handler|
O|VAR|20SRG10CF021XQ01_input||..\SRG_init.fgi|164|246|Socket|
I|SOCK|SRG1_avt_mode||..\SRG_logic.fgi|58|308|Socket|
I|SOCK|SRG1_avt_mode||..\SRG_logic.fgi|34|258|Socket|
R|VAR|20SRG10CT055XQ01_input|0|..\SRG_vlv.fgi|501.5|303|Gidra:dat_ana_2_handler|
O|VAR|20SRG10CT055XQ01_input||..\SRG_init_1.fgi|162|221|Socket|
R|VAR|20SRG10CU032XQ01_input|0|..\SRG_vlv.fgi|725.5|478|Gidra:dat_ana_2_handler|
O|VAR|20SRG10CU032XQ01_input||..\SRG_init_1.fgi|248|173|Socket|
O|VAR|20SRG10CQ008XQ01|-1|..\SRG_vlv.fgi|112.5|462|Gidra:dat_ana_2_handler|
R|VAR|20SRG10CQ008XQ01|-1|..\SRG_vlv.fgi|671.75|405.98|Gidra:reg_ras_man|
R|VAR|20SRG10CF022XQ01_input|0|..\SRG_vlv.fgi|55|518|Gidra:dat_ana_2_handler|
O|VAR|20SRG10CF022XQ01_input||..\SRG_init.fgi|164|251|Socket|
R|VAR|20SRG10CT056XQ01_input|0|..\SRG_vlv.fgi|525.5|290|Gidra:dat_ana_2_handler|
O|VAR|20SRG10CT056XQ01_input||..\SRG_init_1.fgi|162|213|Socket|
R|VAR|20SRG10CU033XQ01_input|0|..\SRG_vlv.fgi|725.5|465|Gidra:dat_ana_2_handler|
O|VAR|20SRG10CU033XQ01_input||..\SRG_init_1.fgi|248|165|Socket|
O|VAR|20SRG10AA108YA21||..\SRG_logic.fgi|79|198|Socket|
R|VAR|20SRG10AA108YA21|-1|..\SRG_vlv.fgi|339|749|Gidra:klapan_man|
R|VAR|20SRG10AA313XH51||..\SRG_logic.fgi|450.5|161|Socket|
O|VAR|20SRG10AA313XH51|0|..\SRG_vlv.fgi|620|581|Gidra:klapan_man|
R|VAR|20SRG10CF023XQ01_input|0|..\SRG_vlv.fgi|26|504|Gidra:dat_ana_2_handler|
O|VAR|20SRG10CF023XQ01_input||..\SRG_init.fgi|164|211|Socket|
R|VAR|20SRG10CT057XQ01_input|0|..\SRG_vlv.fgi|675.5|556|Gidra:dat_ana_2_handler|
O|VAR|20SRG10CT057XQ01_input||..\SRG_init_1.fgi|248|229|Socket|
R|VAR|20SRG10CU034XQ01_input|0|..\SRG_vlv.fgi|725.5|452|Gidra:dat_ana_2_handler|
O|VAR|20SRG10CU034XQ01_input||..\SRG_init_1.fgi|248|157|Socket|
O|VAR|20SRG10AA313YA21||..\SRG_logic.fgi|526.5|203|Socket|
R|VAR|20SRG10AA313YA21|-1|..\SRG_vlv.fgi|620|581|Gidra:klapan_man|
R|VAR|20SRG10CP001XQ01_up_alarm_setpoint||..\SRG_logic.fgi|120|256|Socket|
R|VAR|20SRG10CP001XQ01_up_alarm_setpoint||..\SRG_logic.fgi|34|265|Socket|
O|VAR|20SRG10CP001XQ01_up_alarm_setpoint|-1|..\SRG_vlv.fgi|197|658|Gidra:dat_ana_patm_handler|
R|VAR|20SRG10CF024XQ01_input|0|..\SRG_vlv.fgi|55|504|Gidra:dat_ana_2_handler|
O|VAR|20SRG10CF024XQ01_input||..\SRG_init.fgi|164|216|Socket|
R|VAR|20SRG10CT058XQ01_input|0|..\SRG_vlv.fgi|725.5|556|Gidra:dat_ana_2_handler|
O|VAR|20SRG10CT058XQ01_input||..\SRG_init_1.fgi|248|221|Socket|
R|VAR|20SRG10CU035XQ01_input|0|..\SRG_vlv.fgi|725.5|504|Gidra:dat_ana_2_handler|
O|VAR|20SRG10CU035XQ01_input||..\SRG_init_1.fgi|248|149|Socket|
R|VAR|20SRG10CF025XQ01_input|0|..\SRG_vlv.fgi|26|490|Gidra:dat_ana_2_handler|
O|VAR|20SRG10CF025XQ01_input||..\SRG_init.fgi|164|172|Socket|
R|VAR|20SRG10CT059XQ01_input|0|..\SRG_vlv.fgi|650.5|504|Gidra:dat_ana_2_handler|
O|VAR|20SRG10CT059XQ01_input||..\SRG_init_1.fgi|248|213|Socket|
R|VAR|20SRG10CU036XQ01_input|0|..\SRG_vlv.fgi|650.5|491|Gidra:dat_ana_2_handler|
O|VAR|20SRG10CU036XQ01_input||..\SRG_init_1.fgi|248|141|Socket|
R|VAR|20SRG10GC408XQ03_input|0|..\SRG_vlv.fgi|281|630|Gidra:dat_ana_2_handler|
O|VAR|20SRG10GC408XQ03_input||..\SRG_init_1.fgi|74|233|Socket|
I|SOCK|20SRG10CP023XQ01||..\SRG_logic.fgi|117|192|Socket|
I|SOCK|20SRG10CP023XQ01||..\SRG_logic.fgi|31|107|Socket|
R|VAR|20SRG10CF026XQ01_input|0|..\SRG_vlv.fgi|55|490|Gidra:dat_ana_2_handler|
O|VAR|20SRG10CF026XQ01_input||..\SRG_init.fgi|164|177|Socket|
R|VAR|20SRG10CU037XQ01_input|0|..\SRG_vlv.fgi|650.5|478|Gidra:dat_ana_2_handler|
O|VAR|20SRG10CU037XQ01_input||..\SRG_init_1.fgi|248|133|Socket|
R|VAR|20SRG10GC409XQ03_input|0|..\SRG_vlv.fgi|281|588|Gidra:dat_ana_2_handler|
O|VAR|20SRG10GC409XQ03_input||..\SRG_init_1.fgi|162|233|Socket|
R|VAR|20SRG10CF027XQ01_input|0|..\SRG_vlv.fgi|26|476|Gidra:dat_ana_2_handler|
O|VAR|20SRG10CF027XQ01_input||..\SRG_init.fgi|164|133|Socket|
R|VAR|20SRG10CU038XQ01_input|0|..\SRG_vlv.fgi|650.5|465|Gidra:dat_ana_2_handler|
O|VAR|20SRG10CU038XQ01_input||..\SRG_init_1.fgi|248|125|Socket|
R|VAR|20SRG10CF028XQ01_input|0|..\SRG_vlv.fgi|55|476|Gidra:dat_ana_2_handler|
O|VAR|20SRG10CF028XQ01_input||..\SRG_init.fgi|164|138|Socket|
R|VAR|20SRG10CP007XQ01_up_alarm_setpoint||..\SRG_logic.fgi|120|238|Socket|
R|VAR|20SRG10CP007XQ01_up_alarm_setpoint||..\SRG_logic.fgi|34|217|Socket|
O|VAR|20SRG10CP007XQ01_up_alarm_setpoint|-1|..\SRG_vlv.fgi|197|616|Gidra:dat_ana_patm_handler|
R|VAR|20SRG10CU039XQ01_input|0|..\SRG_vlv.fgi|650.5|452|Gidra:dat_ana_2_handler|
O|VAR|20SRG10CU039XQ01_input||..\SRG_init_1.fgi|248|117|Socket|
R|VAR|20SRG10CP060XQ01_input|0|..\SRG_vlv.fgi|501.5|290|Gidra:dat_ana_patm_handler|
O|VAR|20SRG10CP060XQ01_input||..\SRG_init_1.fgi|162|265|Socket|
R|VAR|20SRG10CP013XQ01||..\SRG_logic.fgi|117|222|Socket|
R|VAR|20SRG10CP013XQ01||..\SRG_logic.fgi|31|177|Socket|
R|VAR|20SRG10CP013XQ01|-1|..\SRG_logic.fgi|150.75|331.98|Gidra:reg_ras_man|
O|VAR|20SRG10CP013XQ01|-1|..\SRG_vlv.fgi|197|574|Gidra:dat_ana_patm_handler|
I|SOCK|20SRG10CP005XQ01_up_alarm_setpoint||..\SRG_logic.fgi|120|244|Socket|
I|SOCK|20SRG10CP005XQ01_up_alarm_setpoint||..\SRG_logic.fgi|34|231|Socket|
R|VAR|20SRG10CF029XQ01_input|0|..\SRG_vlv.fgi|84|630|Gidra:dat_ana_2_handler|
O|VAR|20SRG10CF029XQ01_input||..\SRG_init_1.fgi|74|37|Socket|
R|VAR|20SRG10CP061XQ01_input|0|..\SRG_vlv.fgi|451.5|290|Gidra:dat_ana_patm_handler|
O|VAR|20SRG10CP061XQ01_input||..\SRG_init_1.fgi|162|261|Socket|
O|VAR|20SRG10AA126YA21||..\SRG_logic.fgi|79|72|Socket|
R|VAR|20SRG10AA126YA21|-1|..\SRG_vlv.fgi|269|723|Gidra:klapan_man|
R|VAR|20SRG10CP062XQ01_input|0|..\SRG_vlv.fgi|525.5|224|Gidra:dat_ana_patm_handler|
O|VAR|20SRG10CP062XQ01_input||..\SRG_init_1.fgi|162|281|Socket|
R|VAR|20SRG10CF064XQ01||..\SRG_logic.fgi|452|151|Socket|
O|VAR|20SRG10CF064XQ01|-1|..\SRG_vlv.fgi|650.5|530|Gidra:dat_ana_2_handler|
R|VAR|20SRG10CP063XQ01_input|0|..\SRG_vlv.fgi|525.5|211|Gidra:dat_ana_patm_handler|
O|VAR|20SRG10CP063XQ01_input||..\SRG_init_1.fgi|162|277|Socket|
R|VAR|20SRG10AA292XH51||..\SRG_logic.fgi|329.5|187|Socket|
O|VAR|20SRG10AA292XH51|0|..\SRG_vlv.fgi|450|378|Gidra:klapan_man|
R|VAR|20SRG10CP064XQ01_input|0|..\SRG_vlv.fgi|525.5|198|Gidra:dat_ana_patm_handler|
O|VAR|20SRG10CP064XQ01_input||..\SRG_init_1.fgi|162|273|Socket|
O|VAR|20SRG10AA292YA21||..\SRG_logic.fgi|397.5|232|Socket|
R|VAR|20SRG10AA292YA21|-1|..\SRG_vlv.fgi|450|378|Gidra:klapan_man|
R|VAR|20SRG10AA252XH51||..\SRG_logic.fgi|210.5|211|Socket|
O|VAR|20SRG10AA252XH51|0|..\SRG_vlv.fgi|463|581|Gidra:klapan_man|
R|VAR|20SRG10CP066XQ01_input|0|..\SRG_vlv.fgi|549.5|262|Gidra:dat_ana_2_handler|
O|VAR|20SRG10CP066XQ01_input||..\SRG_init_1.fgi|162|185|Socket|
O|VAR|20SRG10AA115YA21||..\SRG_logic.fgi|173.5|215|Socket|
R|VAR|20SRG10AA115YA21|-1|..\SRG_vlv.fgi|437|749|Gidra:klapan_man|
O|VAR|20SRG10AA115YA22||..\SRG_logic.fgi|79|161|Socket|
R|VAR|20SRG10AA115YA22|-1|..\SRG_vlv.fgi|437|749|Gidra:klapan_man|
R|VAR|20SRG10GC410XQ03_input|0|..\SRG_vlv.fgi|281|546|Gidra:dat_ana_2_handler|
O|VAR|20SRG10GC410XQ03_input||..\SRG_init_1.fgi|248|233|Socket|
R|VAR|20SRG10AA320XH51||..\SRG_logic.fgi|450.5|211|Socket|
O|VAR|20SRG10AA320XH51|0|..\SRG_vlv.fgi|704|629|Gidra:klapan_man|
O|VAR|20SRG10AA252YA21||..\SRG_logic.fgi|278.5|256|Socket|
R|VAR|20SRG10AA252YA21|-1|..\SRG_vlv.fgi|463|581|Gidra:klapan_man|
R|VAR|20SRG10CP067XQ01_input|0|..\SRG_vlv.fgi|625.5|517|Gidra:dat_ana_patm_handler|
O|VAR|20SRG10CP067XQ01_input||..\SRG_init_1.fgi|248|269|Socket|
I|SOCK|20SRG10CP001XQ01||..\SRG_logic.fgi|117|258|Socket|
I|SOCK|20SRG10CP001XQ01||..\SRG_logic.fgi|31|267|Socket|
O|VAR|20SRG10CF053XQ01|-1|..\SRG_vlv.fgi|452.5|543|Gidra:dat_ana_2_handler|
R|VAR|20SRG10CF053XQ01|-1|..\SRG_vlv.fgi|836.75|404.98|Gidra:reg_ras_man|
O|VAR|20SRG10AA320YA21||..\SRG_logic.fgi|518.5|256|Socket|
R|VAR|20SRG10AA320YA21|-1|..\SRG_vlv.fgi|704|629|Gidra:klapan_man|
R|VAR|20SRG10CU040XQ01_input|0|..\SRG_vlv.fgi|650.5|439|Gidra:dat_ana_2_handler|
O|VAR|20SRG10CU040XQ01_input||..\SRG_init_1.fgi|248|109|Socket|
R|VAR|20SRG10CP068XQ01_input|0|..\SRG_vlv.fgi|625.5|504|Gidra:dat_ana_patm_handler|
O|VAR|20SRG10CP068XQ01_input||..\SRG_init_1.fgi|248|265|Socket|
R|VAR|20SRG10AA281XH51||..\SRG_logic.fgi|338.5|69|Socket|
O|VAR|20SRG10AA281XH51|0|..\SRG_vlv.fgi|464|354|Gidra:klapan_man|
R|VAR|20SRG10AA281XH52||..\SRG_logic.fgi|338.5|102|Socket|
O|VAR|20SRG10AA281XH52|1|..\SRG_vlv.fgi|464|354|Gidra:klapan_man|
R|VAR|20SRG10AA318XH51||..\SRG_logic.fgi|450.5|219|Socket|
O|VAR|20SRG10AA318XH51|0|..\SRG_vlv.fgi|690|581|Gidra:klapan_man|
R|VAR|20SRG10CF030XQ01_input|0|..\SRG_vlv.fgi|84|616|Gidra:dat_ana_2_handler|
O|VAR|20SRG10CF030XQ01_input||..\SRG_init_1.fgi|162|37|Socket|
R|VAR|20SRG10CU041XQ01_input|0|..\SRG_vlv.fgi|700.5|491|Gidra:dat_ana_2_handler|
O|VAR|20SRG10CU041XQ01_input||..\SRG_init_1.fgi|248|101|Socket|
R|VAR|20SRG10CP069XQ01_input|0|..\SRG_vlv.fgi|700.5|530|Gidra:dat_ana_patm_handler|
O|VAR|20SRG10CP069XQ01_input||..\SRG_init_1.fgi|248|261|Socket|
O|VAR|20SRG10AA281YA21||..\SRG_logic.fgi|411.5|80|Socket|
R|VAR|20SRG10AA281YA21|-1|..\SRG_vlv.fgi|464|354|Gidra:klapan_man|
O|VAR|20SRG10AA281YA22||..\SRG_logic.fgi|411.5|113|Socket|
R|VAR|20SRG10AA281YA22|-1|..\SRG_vlv.fgi|464|354|Gidra:klapan_man|
R|VAR|20SRG10CF031XQ01_input|0|..\SRG_vlv.fgi|84|602|Gidra:dat_ana_2_handler|
O|VAR|20SRG10CF031XQ01_input||..\SRG_init_1.fgi|248|37|Socket|
O|VAR|20SRG10AA318YA21||..\SRG_logic.fgi|518.5|264|Socket|
R|VAR|20SRG10AA318YA21|-1|..\SRG_vlv.fgi|690|581|Gidra:klapan_man|
R|VAR|20SRG10CU042XQ01_input|0|..\SRG_vlv.fgi|700.5|478|Gidra:dat_ana_2_handler|
O|VAR|20SRG10CU042XQ01_input||..\SRG_init_1.fgi|248|93|Socket|
O|VAR|20SRG10CQ004XQ01|-1|..\SRG_vlv.fgi|112.5|574|Gidra:dat_ana_2_handler|
R|VAR|20SRG10CQ004XQ01|-1|..\SRG_vlv.fgi|621.75|330.98|Gidra:reg_ras_man|
R|VAR|20SRG10CQ016XQ03_input|0|..\SRG_vlv.fgi|366.5|602|Gidra:dat_ana_2_handler|
O|VAR|20SRG10CQ016XQ03_input||..\SRG_init_1.fgi|74|53|Socket|
R|VAR|20SRG10AA241XH51||..\SRG_logic.fgi|210.5|142|Socket|
O|VAR|20SRG10AA241XH51|0|..\SRG_vlv.fgi|421|653|Gidra:klapan_man|
R|VAR|20SRG10AA241XH52||..\SRG_logic.fgi|210.5|169|Socket|
O|VAR|20SRG10AA241XH52|1|..\SRG_vlv.fgi|421|653|Gidra:klapan_man|
R|VAR|20SRG10AA279XH51||..\SRG_logic.fgi|329.5|161|Socket|
O|VAR|20SRG10AA279XH51|0|..\SRG_vlv.fgi|464|378|Gidra:klapan_man|
R|VAR|20SRG10CU043XQ01_input|0|..\SRG_vlv.fgi|700.5|465|Gidra:dat_ana_2_handler|
O|VAR|20SRG10CU043XQ01_input||..\SRG_init_1.fgi|248|85|Socket|
O|VAR|20SRG10AA104YA21||..\SRG_logic.fgi|79|226|Socket|
R|VAR|20SRG10AA104YA21|-1|..\SRG_vlv.fgi|283|749|Gidra:klapan_man|
R|VAR|20SRG10CQ017XQ03_input|0|..\SRG_vlv.fgi|366.5|560|Gidra:dat_ana_2_handler|
O|VAR|20SRG10CQ017XQ03_input||..\SRG_init_1.fgi|162|53|Socket|
O|VAR|SRG10_PSS1_automatic_mode||..\SRG_logic.fgi|313|379|Socket|
R|VAR|SRG10_PSS1_automatic_mode||..\SRG_logic.fgi|258|315|Socket|
O|VAR|20SRG10AA241YA21||..\SRG_logic.fgi|289.5|165|Socket|
R|VAR|20SRG10AA241YA21|-1|..\SRG_vlv.fgi|421|653|Gidra:klapan_man|
O|VAR|20SRG10AA241YA22||..\SRG_logic.fgi|286.5|211|Socket|
R|VAR|20SRG10AA241YA22|-1|..\SRG_vlv.fgi|421|653|Gidra:klapan_man|
O|VAR|20SRG10AA279YA21||..\SRG_logic.fgi|405.5|203|Socket|
R|VAR|20SRG10AA279YA21|-1|..\SRG_vlv.fgi|464|378|Gidra:klapan_man|
R|VAR|20SRG10CU044XQ01_input|0|..\SRG_vlv.fgi|700.5|452|Gidra:dat_ana_2_handler|
O|VAR|20SRG10CU044XQ01_input||..\SRG_init_1.fgi|248|77|Socket|
R|VAR|20SRG10CU045XQ01_input|0|..\SRG_vlv.fgi|700.5|439|Gidra:dat_ana_2_handler|
O|VAR|20SRG10CU045XQ01_input||..\SRG_init_1.fgi|248|69|Socket|
I|SOCK|20SRG10CP017XQ01||..\SRG_logic.fgi|117|210|Socket|
I|SOCK|20SRG10CP017XQ01||..\SRG_logic.fgi|31|149|Socket|
R|VAR|20SRG10CP070XQ01_input|0|..\SRG_vlv.fgi|625.5|556|Gidra:dat_ana_patm_handler|
O|VAR|20SRG10CP070XQ01_input||..\SRG_init_1.fgi|248|281|Socket|
R|VAR|20SRG10CP071XQ01_input|0|..\SRG_vlv.fgi|625.5|543|Gidra:dat_ana_patm_handler|
O|VAR|20SRG10CP071XQ01_input||..\SRG_init_1.fgi|248|277|Socket|
O|VAR|20SRG10AA122YA21||..\SRG_logic.fgi|79|100|Socket|
R|VAR|20SRG10AA122YA21|-1|..\SRG_vlv.fgi|535|749|Gidra:klapan_man|
R|VAR|SRG10_PSS1_VACUUM_stop||..\SRG_logic.fgi|210|80|Socket|
R|VAR|SRG10_PSS1_VACUUM_stop||..\SRG_logic.fgi|338|80|Socket|
R|VAR|SRG10_PSS1_VACUUM_stop||..\SRG_logic.fgi|467|80|Socket|
R|VAR|20SRG10CP072XQ01_input|0|..\SRG_vlv.fgi|625.5|530|Gidra:dat_ana_patm_handler|
O|VAR|20SRG10CP072XQ01_input||..\SRG_init_1.fgi|248|273|Socket|
R|VAR|20SRG10CP007XQ01||..\SRG_logic.fgi|117|240|Socket|
R|VAR|20SRG10CP007XQ01||..\SRG_logic.fgi|31|219|Socket|
R|VAR|20SRG10CP007XQ01|-1|..\SRG_logic.fgi|174.75|367.98|Gidra:reg_ras_man|
O|VAR|20SRG10CP007XQ01|-1|..\SRG_vlv.fgi|197|616|Gidra:dat_ana_patm_handler|
O|VAR|SRG1_ruch_mode||..\SRG_logic.fgi|82|359|Socket|
R|VAR|SRG1_ruch_mode||..\SRG_logic.fgi|96|308|Socket|
R|VAR|SRG1_ruch_mode|-1|..\SRG_vlv.fgi|822|289.23|Gidra:pump_handler|
R|VAR|20SRG10AA257XH51||..\SRG_logic.fgi|210.5|191|Socket|
O|VAR|20SRG10AA257XH51|0|..\SRG_vlv.fgi|533|629|Gidra:klapan_man|
R|VAR|20SRG10CP023XQ01_up_alarm_setpoint||..\SRG_logic.fgi|120|190|Socket|
R|VAR|20SRG10CP023XQ01_up_alarm_setpoint||..\SRG_logic.fgi|34|105|Socket|
O|VAR|20SRG10CP023XQ01_up_alarm_setpoint|-1|..\SRG_vlv.fgi|197|504|Gidra:dat_ana_patm_handler|
R|VAR|20SRG10AA325XH51||..\SRG_logic.fgi|450.5|191|Socket|
O|VAR|20SRG10AA325XH51|0|..\SRG_vlv.fgi|718|605|Gidra:klapan_man|
R|VAR|20SRG10CP074XQ01_input|0|..\SRG_vlv.fgi|700.5|543|Gidra:dat_ana_2_handler|
O|VAR|20SRG10CP074XQ01_input||..\SRG_init_1.fgi|248|185|Socket|
I|SOCK|20SRG10CP021XQ01_up_alarm_setpoint||..\SRG_logic.fgi|120|196|Socket|
I|SOCK|20SRG10CP021XQ01_up_alarm_setpoint||..\SRG_logic.fgi|34|119|Socket|
O|VAR|20SRG10AA257YA21||..\SRG_logic.fgi|278.5|236|Socket|
R|VAR|20SRG10AA257YA21|-1|..\SRG_vlv.fgi|533|629|Gidra:klapan_man|
O|VAR|20SRG10AA325YA21||..\SRG_logic.fgi|518.5|236|Socket|
R|VAR|20SRG10AA325YA21|-1|..\SRG_vlv.fgi|718|605|Gidra:klapan_man|
O|VAR|20SRG10CQ011XQ01|-1|..\SRG_vlv.fgi|112.5|378|Gidra:dat_ana_2_handler|
R|VAR|20SRG10CQ011XQ01|-1|..\SRG_vlv.fgi|671.75|329.98|Gidra:reg_ras_man|
R|VAR|20SRG10AA286XH51||..\SRG_logic.fgi|329.5|211|Socket|
O|VAR|20SRG10AA286XH51|0|..\SRG_vlv.fgi|422|330|Gidra:klapan_man|
O|VAR|20SRG10AA111YA21||..\SRG_logic.fgi|173.5|227|Socket|
R|VAR|20SRG10AA111YA21|-1|..\SRG_vlv.fgi|381|749|Gidra:klapan_man|
O|VAR|20SRG10AA111YA22||..\SRG_logic.fgi|79|189|Socket|
R|VAR|20SRG10AA111YA22|-1|..\SRG_vlv.fgi|381|749|Gidra:klapan_man|
R|VAR|YELLOW||..\SRG_logic.fgi|280|95|SString|
R|VAR|YELLOW||..\SRG_logic.fgi|280|67|SString|
R|VAR|YELLOW||..\SRG_logic.fgi|408|95|SString|
R|VAR|YELLOW||..\SRG_logic.fgi|408|67|SString|
R|VAR|YELLOW||..\SRG_logic.fgi|537|95|SString|
R|VAR|YELLOW||..\SRG_logic.fgi|537|67|SString|
O|VAR|20SRG10AA286YA21||..\SRG_logic.fgi|397.5|256|Socket|
R|VAR|20SRG10AA286YA21|-1|..\SRG_vlv.fgi|422|330|Gidra:klapan_man|
O|VAR|20SRG10CQ009XQ01|-1|..\SRG_vlv.fgi|112.5|434|Gidra:dat_ana_2_handler|
R|VAR|20SRG10CQ009XQ01|-1|..\SRG_vlv.fgi|671.75|381.98|Gidra:reg_ras_man|
R|VAR|20SRG10AA246XH51||..\SRG_logic.fgi|210.5|69|Socket|
O|VAR|20SRG10AA246XH51|0|..\SRG_vlv.fgi|519|629|Gidra:klapan_man|
R|VAR|20SRG10AA246XH52||..\SRG_logic.fgi|210.5|102|Socket|
O|VAR|20SRG10AA246XH52|1|..\SRG_vlv.fgi|519|629|Gidra:klapan_man|
O|VAR|20SRG10AA109YA21||..\SRG_logic.fgi|173.5|233|Socket|
R|VAR|20SRG10AA109YA21|-1|..\SRG_vlv.fgi|353|749|Gidra:klapan_man|
O|VAR|20SRG10AA109YA22||..\SRG_logic.fgi|79|203|Socket|
R|VAR|20SRG10AA109YA22|-1|..\SRG_vlv.fgi|353|749|Gidra:klapan_man|
I|SOCK|20SRG10CP027XQ01_up_alarm_setpoint||..\SRG_logic.fgi|120|178|Socket|
I|SOCK|20SRG10CP027XQ01_up_alarm_setpoint||..\SRG_logic.fgi|34|77|Socket|
O|VAR|SRG10_PSS1_tech_mode||..\SRG_logic.fgi|311|344|Socket|
R|VAR|SRG10_PSS1_tech_mode||..\SRG_logic.fgi|308.5|315|Socket|
O|VAR|20SRG10AA246YA21||..\SRG_logic.fgi|283.5|80|Socket|
R|VAR|20SRG10AA246YA21|-1|..\SRG_vlv.fgi|519|629|Gidra:klapan_man|
O|VAR|20SRG10AA246YA22||..\SRG_logic.fgi|283.5|113|Socket|
R|VAR|20SRG10AA246YA22|-1|..\SRG_vlv.fgi|519|629|Gidra:klapan_man|
O|VAR|SRG10_PSS2_tech_mode||..\SRG_logic.fgi|422|344|Socket|
R|VAR|SRG10_PSS2_tech_mode||..\SRG_logic.fgi|419.5|315|Socket|
R|VAR|20SRG10CP025XQ01||..\SRG_logic.fgi|117|186|Socket|
R|VAR|20SRG10CP025XQ01||..\SRG_logic.fgi|31|93|Socket|
R|VAR|20SRG10CP025XQ01|-1|..\SRG_logic.fgi|197.75|384.98|Gidra:reg_ras_man|
O|VAR|20SRG10CP025XQ01|-1|..\SRG_vlv.fgi|197|490|Gidra:dat_ana_patm_handler|
O|VAR|SRG10_PSS3_tech_mode||..\SRG_logic.fgi|534|344|Socket|
R|VAR|SRG10_PSS3_tech_mode||..\SRG_logic.fgi|531.5|315|Socket|
O|VAR|20SRG10AA100YA21||..\SRG_logic.fgi|79|254|Socket|
R|VAR|20SRG10AA100YA21|-1|..\SRG_vlv.fgi|227|749|Gidra:klapan_man|
R|VAR|20SRG10CP013XQ01_up_alarm_setpoint||..\SRG_logic.fgi|120|220|Socket|
R|VAR|20SRG10CP013XQ01_up_alarm_setpoint||..\SRG_logic.fgi|34|175|Socket|
O|VAR|20SRG10CP013XQ01_up_alarm_setpoint|-1|..\SRG_vlv.fgi|197|574|Gidra:dat_ana_patm_handler|
O|VAR|20SRG10AA127YA21||..\SRG_logic.fgi|173.5|179|Socket|
R|VAR|20SRG10AA127YA21|-1|..\SRG_vlv.fgi|283|723|Gidra:klapan_man|
O|VAR|20SRG10AA127YA22||..\SRG_logic.fgi|79|77|Socket|
R|VAR|20SRG10AA127YA22|-1|..\SRG_vlv.fgi|283|723|Gidra:klapan_man|
I|SOCK|20SRG10CP011XQ01_up_alarm_setpoint||..\SRG_logic.fgi|120|226|Socket|
I|SOCK|20SRG10CP011XQ01_up_alarm_setpoint||..\SRG_logic.fgi|34|189|Socket|
I|SOCK|20SRG10CP013XQ01||..\SRG_logic.fgi|117|222|Socket|
I|SOCK|20SRG10CP013XQ01||..\SRG_logic.fgi|31|177|Socket|
R|VAR|20SRG10AA293XH51||..\SRG_logic.fgi|329.5|183|Socket|
O|VAR|20SRG10AA293XH51|0|..\SRG_vlv.fgi|450|354|Gidra:klapan_man|
O|VAR|20SRG10AA293YA21||..\SRG_logic.fgi|397.5|228|Socket|
R|VAR|20SRG10AA293YA21|-1|..\SRG_vlv.fgi|450|354|Gidra:klapan_man|
R|VAR|20SRG10CP003XQ01||..\SRG_logic.fgi|117|252|Socket|
R|VAR|20SRG10CP003XQ01||..\SRG_logic.fgi|31|247|Socket|
R|VAR|20SRG10CP003XQ01|-1|..\SRG_logic.fgi|174.75|384.98|Gidra:reg_ras_man|
O|VAR|20SRG10CP003XQ01|-1|..\SRG_vlv.fgi|197|644|Gidra:dat_ana_patm_handler|
R|VAR|20SRG10CP019XQ01_up_alarm_setpoint||..\SRG_logic.fgi|120|202|Socket|
R|VAR|20SRG10CP019XQ01_up_alarm_setpoint||..\SRG_logic.fgi|34|133|Socket|
O|VAR|20SRG10CP019XQ01_up_alarm_setpoint|-1|..\SRG_vlv.fgi|197|532|Gidra:dat_ana_patm_handler|
R|VAR|20SRG10AA253XH51||..\SRG_logic.fgi|210.5|207|Socket|
O|VAR|20SRG10AA253XH51|0|..\SRG_vlv.fgi|477|581|Gidra:klapan_man|
I|SOCK|20SRG10CP017XQ01_up_alarm_setpoint||..\SRG_logic.fgi|120|208|Socket|
I|SOCK|20SRG10CP017XQ01_up_alarm_setpoint||..\SRG_logic.fgi|34|147|Socket|
O|VAR|20SRG10AA116YA21||..\SRG_logic.fgi|79|142|Socket|
R|VAR|20SRG10AA116YA21|-1|..\SRG_vlv.fgi|451|749|Gidra:klapan_man|
R|VAR|20SRG10AA321XH51||..\SRG_logic.fgi|450.5|207|Socket|
O|VAR|20SRG10AA321XH51|0|..\SRG_vlv.fgi|704|605|Gidra:klapan_man|
O|VAR|20SRG10AA253YA21||..\SRG_logic.fgi|278.5|252|Socket|
R|VAR|20SRG10AA253YA21|-1|..\SRG_vlv.fgi|477|581|Gidra:klapan_man|
R|VAR|20SRG10CU001XQ02_input|0|..\SRG_vlv.fgi|527.5|556|Gidra:dat_ana_2_handler|
O|VAR|20SRG10CU001XQ02_input||..\SRG_init_1.fgi|74|177|Socket|
R|VAR|20SRG10CF054XQ01||..\SRG_logic.fgi|212|151|Socket|
O|VAR|20SRG10CF054XQ01|-1|..\SRG_vlv.fgi|452.5|530|Gidra:dat_ana_2_handler|
R|VAR|20SRG10CF054XQ01|-1|..\SRG_vlv.fgi|864.75|404.98|Gidra:reg_ras_man|
O|VAR|20SRG10AA321YA21||..\SRG_logic.fgi|518.5|252|Socket|
R|VAR|20SRG10AA321YA21|-1|..\SRG_vlv.fgi|704|605|Gidra:klapan_man|
R|VAR|20SRG10CU002XQ02_input|0|..\SRG_vlv.fgi|527.5|543|Gidra:dat_ana_2_handler|
O|VAR|20SRG10CU002XQ02_input||..\SRG_init_1.fgi|74|169|Socket|
R|VAR|20SRG10AA282XH51||..\SRG_logic.fgi|338.5|94|Socket|
O|VAR|20SRG10AA282XH51|0|..\SRG_vlv.fgi|478|402|Gidra:klapan_man|
R|VAR|20SRG10AA282XH52||..\SRG_logic.fgi|338.5|61|Socket|
O|VAR|20SRG10AA282XH52|1|..\SRG_vlv.fgi|478|402|Gidra:klapan_man|
R|VAR|20SRG10AA319XH51||..\SRG_logic.fgi|450.5|215|Socket|
O|VAR|20SRG10AA319XH51|0|..\SRG_vlv.fgi|704|653|Gidra:klapan_man|
R|VAR|20SRG10CU003XQ02_input|0|..\SRG_vlv.fgi|527.5|530|Gidra:dat_ana_2_handler|
O|VAR|20SRG10CU003XQ02_input||..\SRG_init_1.fgi|74|161|Socket|
R|VAR|20SRG10CU101XQ02_input|0|..\SRG_vlv.fgi|84|490|Gidra:dat_ana_2_handler|
O|VAR|20SRG10CU101XQ02_input||..\SRG_init_1.fgi|74|189|Socket|
O|VAR|20SRG10AA282YA21||..\SRG_logic.fgi|411.5|105|Socket|
R|VAR|20SRG10AA282YA21|-1|..\SRG_vlv.fgi|478|402|Gidra:klapan_man|
O|VAR|20SRG10AA282YA22||..\SRG_logic.fgi|411.5|72|Socket|
R|VAR|20SRG10AA282YA22|-1|..\SRG_vlv.fgi|478|402|Gidra:klapan_man|
O|VAR|20SRG10AA319YA21||..\SRG_logic.fgi|518.5|260|Socket|
R|VAR|20SRG10AA319YA21|-1|..\SRG_vlv.fgi|704|653|Gidra:klapan_man|
O|VAR|20SRG10CQ005XQ01|-1|..\SRG_vlv.fgi|112.5|546|Gidra:dat_ana_2_handler|
R|VAR|20SRG10CQ005XQ01|-1|..\SRG_vlv.fgi|621.75|304.98|Gidra:reg_ras_man|
R|VAR|20SRG10CU004XQ02_input|0|..\SRG_vlv.fgi|527.5|517|Gidra:dat_ana_2_handler|
O|VAR|20SRG10CU004XQ02_input||..\SRG_init_1.fgi|74|153|Socket|
R|VAR|20SRG10CU102XQ02_input|0|..\SRG_vlv.fgi|84|462|Gidra:dat_ana_2_handler|
O|VAR|20SRG10CU102XQ02_input||..\SRG_init_1.fgi|162|189|Socket|
R|VAR|20SRG10CP001XQ01_input|0|..\SRG_vlv.fgi|197|658|Gidra:dat_ana_patm_handler|
O|VAR|20SRG10CP001XQ01_input||..\SRG_init.fgi|72|386|Socket|
O|VAR|20SRG10AA105YA21||..\SRG_logic.fgi|173.5|245|Socket|
R|VAR|20SRG10AA105YA21|-1|..\SRG_vlv.fgi|297|749|Gidra:klapan_man|
O|VAR|20SRG10AA105YA22||..\SRG_logic.fgi|79|231|Socket|
R|VAR|20SRG10AA105YA22|-1|..\SRG_vlv.fgi|297|749|Gidra:klapan_man|
R|VAR|20SRG10AA310XH51||..\SRG_logic.fgi|450.5|142|Socket|
O|VAR|20SRG10AA310XH51|0|..\SRG_vlv.fgi|620|653|Gidra:klapan_man|
R|VAR|20SRG10AA310XH52||..\SRG_logic.fgi|450.5|169|Socket|
O|VAR|20SRG10AA310XH52|1|..\SRG_vlv.fgi|620|653|Gidra:klapan_man|
R|VAR|20SRG10CU005XQ02_input|0|..\SRG_vlv.fgi|502.5|504|Gidra:dat_ana_2_handler|
O|VAR|20SRG10CU005XQ02_input||..\SRG_init_1.fgi|74|145|Socket|
R|VAR|20SRG10GC408XQ02_input|0|..\SRG_vlv.fgi|281|644|Gidra:dat_ana_2_handler|
O|VAR|20SRG10GC408XQ02_input||..\SRG_init_1.fgi|74|237|Socket|
R|VAR|20SRG10CU103XQ02_input|0|..\SRG_vlv.fgi|84|434|Gidra:dat_ana_2_handler|
O|VAR|20SRG10CU103XQ02_input||..\SRG_init_1.fgi|248|189|Socket|
R|VAR|20SRG10CP002XQ01_input|0|..\SRG_vlv.fgi|169|658|Gidra:dat_ana_2_handler|
O|VAR|20SRG10CP002XQ01_input||..\SRG_init.fgi|72|382|Socket|
R|VAR|20SRG10CU006XQ02_input|0|..\SRG_vlv.fgi|427.5|491|Gidra:dat_ana_2_handler|
O|VAR|20SRG10CU006XQ02_input||..\SRG_init_1.fgi|74|137|Socket|
R|VAR|20SRG10CF051XQ01_input|0|..\SRG_vlv.fgi|502.5|517|Gidra:dat_ana_2_handler|
O|VAR|20SRG10CF051XQ01_input||..\SRG_init_1.fgi|74|41|Socket|
O|VAR|20SRG10AA310YA21||..\SRG_logic.fgi|529.5|165|Socket|
R|VAR|20SRG10AA310YA21|-1|..\SRG_vlv.fgi|620|653|Gidra:klapan_man|
O|VAR|20SRG10AA310YA22||..\SRG_logic.fgi|526.5|211|Socket|
R|VAR|20SRG10AA310YA22|-1|..\SRG_vlv.fgi|620|653|Gidra:klapan_man|
R|VAR|20SRG10GC409XQ02_input|0|..\SRG_vlv.fgi|281|602|Gidra:dat_ana_2_handler|
O|VAR|20SRG10GC409XQ02_input||..\SRG_init_1.fgi|162|237|Socket|
R|VAR|20SRG10CP021XQ01||..\SRG_logic.fgi|117|198|Socket|
R|VAR|20SRG10CP021XQ01||..\SRG_logic.fgi|31|121|Socket|
R|VAR|20SRG10CP021XQ01|-1|..\SRG_logic.fgi|150.75|297.98|Gidra:reg_ras_man|
O|VAR|20SRG10CP021XQ01|-1|..\SRG_vlv.fgi|197|518|Gidra:dat_ana_patm_handler|
R|VAR|20SRG10CP003XQ01_input|0|..\SRG_vlv.fgi|197|644|Gidra:dat_ana_patm_handler|
O|VAR|20SRG10CP003XQ01_input||..\SRG_init.fgi|72|333|Socket|
R|VAR|20SRG10CU007XQ02_input|0|..\SRG_vlv.fgi|427.5|478|Gidra:dat_ana_2_handler|
O|VAR|20SRG10CU007XQ02_input||..\SRG_init_1.fgi|74|129|Socket|
R|VAR|20SRG10CF052XQ01_input|0|..\SRG_vlv.fgi|452.5|556|Gidra:dat_ana_2_handler|
O|VAR|20SRG10CF052XQ01_input||..\SRG_init_1.fgi|74|257|Socket|
R|VAR|20SRG10CP003XQ01_up_alarm_setpoint||..\SRG_logic.fgi|120|250|Socket|
R|VAR|20SRG10CP003XQ01_up_alarm_setpoint||..\SRG_logic.fgi|34|245|Socket|
O|VAR|20SRG10CP003XQ01_up_alarm_setpoint|-1|..\SRG_vlv.fgi|197|644|Gidra:dat_ana_patm_handler|
R|VAR|20SRG10CP004XQ01_input|0|..\SRG_vlv.fgi|169|644|Gidra:dat_ana_2_handler|
O|VAR|20SRG10CP004XQ01_input||..\SRG_init.fgi|72|329|Socket|
I|SOCK|20SRG10CP001XQ01_up_alarm_setpoint||..\SRG_logic.fgi|120|256|Socket|
I|SOCK|20SRG10CP001XQ01_up_alarm_setpoint||..\SRG_logic.fgi|34|265|Socket|
R|VAR|20SRG10CU008XQ02_input|0|..\SRG_vlv.fgi|427.5|465|Gidra:dat_ana_2_handler|
O|VAR|20SRG10CU008XQ02_input||..\SRG_init_1.fgi|74|121|Socket|
R|VAR|20SRG10CF053XQ01_input|0|..\SRG_vlv.fgi|452.5|543|Gidra:dat_ana_2_handler|
O|VAR|20SRG10CF053XQ01_input||..\SRG_init_1.fgi|74|253|Socket|
R|VAR|20SRG10CP005XQ01_input|0|..\SRG_vlv.fgi|197|630|Gidra:dat_ana_patm_handler|
O|VAR|20SRG10CP005XQ01_input||..\SRG_init.fgi|72|298|Socket|
R|VAR|20SRG10CP019XQ01||..\SRG_logic.fgi|117|204|Socket|
R|VAR|20SRG10CP019XQ01||..\SRG_logic.fgi|31|135|Socket|
R|VAR|20SRG10CP019XQ01|-1|..\SRG_logic.fgi|174.75|314.98|Gidra:reg_ras_man|
O|VAR|20SRG10CP019XQ01|-1|..\SRG_vlv.fgi|197|532|Gidra:dat_ana_patm_handler|
R|VAR|20SRG10CU009XQ02_input|0|..\SRG_vlv.fgi|427.5|452|Gidra:dat_ana_2_handler|
O|VAR|20SRG10CU009XQ02_input||..\SRG_init_1.fgi|74|113|Socket|
R|VAR|20SRG10CF054XQ01_input|0|..\SRG_vlv.fgi|452.5|530|Gidra:dat_ana_2_handler|
O|VAR|20SRG10CF054XQ01_input||..\SRG_init_1.fgi|74|249|Socket|
R|VAR|20SRG10CT001XQ01_input|0|..\SRG_vlv.fgi|141|658|Gidra:dat_ana_2_handler|
O|VAR|20SRG10CT001XQ01_input||..\SRG_init.fgi|72|378|Socket|
R|VAR|20SRG10CP006XQ01_input|0|..\SRG_vlv.fgi|169|630|Gidra:dat_ana_2_handler|
O|VAR|20SRG10CP006XQ01_input||..\SRG_init.fgi|72|294|Socket|
R|VAR|20SRG10CF055XQ01_input|0|..\SRG_vlv.fgi|452.5|517|Gidra:dat_ana_2_handler|
O|VAR|20SRG10CF055XQ01_input||..\SRG_init_1.fgi|74|245|Socket|
R|VAR|20SRG10CP007XQ01_input|0|..\SRG_vlv.fgi|197|616|Gidra:dat_ana_patm_handler|
O|VAR|20SRG10CP007XQ01_input||..\SRG_init.fgi|72|263|Socket|
R|VAR|20SRG10CF056XQ01_input|0|..\SRG_vlv.fgi|427.5|290|Gidra:dat_ana_2_handler|
O|VAR|20SRG10CF056XQ01_input||..\SRG_init_1.fgi|162|41|Socket|
R|VAR|20SRG10CP009XQ01_up_alarm_setpoint||..\SRG_logic.fgi|120|232|Socket|
R|VAR|20SRG10CP009XQ01_up_alarm_setpoint||..\SRG_logic.fgi|34|203|Socket|
O|VAR|20SRG10CP009XQ01_up_alarm_setpoint|-1|..\SRG_vlv.fgi|197|602|Gidra:dat_ana_patm_handler|
R|VAR|20SRG10CP008XQ01_input|0|..\SRG_vlv.fgi|169|616|Gidra:dat_ana_2_handler|
O|VAR|20SRG10CP008XQ01_input||..\SRG_init.fgi|72|259|Socket|
R|VAR|20SRG10AA260XH51||..\SRG_logic.fgi|210.5|179|Socket|
O|VAR|20SRG10AA260XH51|0|..\SRG_vlv.fgi|533.5|581|Gidra:klapan_man|
R|VAR|20SRG10CF057XQ01_input|0|..\SRG_vlv.fgi|549.5|303|Gidra:dat_ana_2_handler|
O|VAR|20SRG10CF057XQ01_input||..\SRG_init_1.fgi|162|257|Socket|
I|SOCK|20SRG10CP007XQ01_up_alarm_setpoint||..\SRG_logic.fgi|120|238|Socket|
I|SOCK|20SRG10CP007XQ01_up_alarm_setpoint||..\SRG_logic.fgi|34|217|Socket|
O|VAR|20SRG10AA123YA21||..\SRG_logic.fgi|173.5|191|Socket|
R|VAR|20SRG10AA123YA21|-1|..\SRG_vlv.fgi|227|723|Gidra:klapan_man|
O|VAR|20SRG10AA123YA22||..\SRG_logic.fgi|79|105|Socket|
R|VAR|20SRG10AA123YA22|-1|..\SRG_vlv.fgi|227|723|Gidra:klapan_man|
R|VAR|20SRG10CP009XQ01_input|0|..\SRG_vlv.fgi|197|602|Gidra:dat_ana_patm_handler|
O|VAR|20SRG10CP009XQ01_input||..\SRG_init.fgi|72|228|Socket|
O|VAR|20SRG10AA260YA21||..\SRG_logic.fgi|278.5|224|Socket|
R|VAR|20SRG10AA260YA21|-1|..\SRG_vlv.fgi|533.5|581|Gidra:klapan_man|
R|VAR|20SRG10CF058XQ01_input|0|..\SRG_vlv.fgi|549.5|290|Gidra:dat_ana_2_handler|
O|VAR|20SRG10CF058XQ01_input||..\SRG_init_1.fgi|162|253|Socket|
R|VAR|20SRG10CF059XQ01_input|0|..\SRG_vlv.fgi|427.5|303|Gidra:dat_ana_2_handler|
O|VAR|20SRG10CF059XQ01_input||..\SRG_init_1.fgi|162|249|Socket|
R|VAR|20SRG10GC410XQ02_input|0|..\SRG_vlv.fgi|281|560|Gidra:dat_ana_2_handler|
O|VAR|20SRG10GC410XQ02_input||..\SRG_init_1.fgi|248|237|Socket|
R|VAR|20SRG10AA258XH51||..\SRG_logic.fgi|210.5|187|Socket|
O|VAR|20SRG10AA258XH51|0|..\SRG_vlv.fgi|533|605|Gidra:klapan_man|
I|SOCK|SRG10_PSS1_VACUUM_stop||..\SRG_logic.fgi|210|80|Socket|
I|SOCK|SRG10_PSS1_VACUUM_stop||..\SRG_logic.fgi|338|80|Socket|
I|SOCK|SRG10_PSS1_VACUUM_stop||..\SRG_logic.fgi|467|80|Socket|
R|VAR|20SRG10AA326XH51||..\SRG_logic.fgi|450.5|187|Socket|
O|VAR|20SRG10AA326XH51|0|..\SRG_vlv.fgi|718|581|Gidra:klapan_man|
O|VAR|20SRG10AA258YA21||..\SRG_logic.fgi|278.5|232|Socket|
R|VAR|20SRG10AA258YA21|-1|..\SRG_vlv.fgi|533|605|Gidra:klapan_man|
I|SOCK|20SRG10CP007XQ01||..\SRG_logic.fgi|117|240|Socket|
I|SOCK|20SRG10CP007XQ01||..\SRG_logic.fgi|31|219|Socket|
R|VAR|20SRG10CF059XQ01||..\SRG_logic.fgi|331|151|Socket|
O|VAR|20SRG10CF059XQ01|-1|..\SRG_vlv.fgi|427.5|303|Gidra:dat_ana_2_handler|
O|VAR|20SRG10AA326YA21||..\SRG_logic.fgi|518.5|232|Socket|
R|VAR|20SRG10AA326YA21|-1|..\SRG_vlv.fgi|718|581|Gidra:klapan_man|
O|VAR|20SRG10CQ012XQ01|-1|..\SRG_vlv.fgi|112.5|350|Gidra:dat_ana_2_handler|
R|VAR|20SRG10CQ012XQ01|-1|..\SRG_vlv.fgi|671.75|303.98|Gidra:reg_ras_man|
R|VAR|20SRG10AA287XH51||..\SRG_logic.fgi|329.5|207|Socket|
O|VAR|20SRG10AA287XH51|0|..\SRG_vlv.fgi|436|402|Gidra:klapan_man|
R|VAR|20SRG10CU010XQ02_input|0|..\SRG_vlv.fgi|427.5|439|Gidra:dat_ana_2_handler|
O|VAR|20SRG10CU010XQ02_input||..\SRG_init_1.fgi|74|105|Socket|
O|VAR|20SRG10AA112YA21||..\SRG_logic.fgi|79|170|Socket|
R|VAR|20SRG10AA112YA21|-1|..\SRG_vlv.fgi|395|749|Gidra:klapan_man|
O|VAR|20SRG10AA287YA21||..\SRG_logic.fgi|397.5|252|Socket|
R|VAR|20SRG10AA287YA21|-1|..\SRG_vlv.fgi|436|402|Gidra:klapan_man|
R|VAR|20SRG10CU011XQ02_input|0|..\SRG_vlv.fgi|477.5|491|Gidra:dat_ana_2_handler|
O|VAR|20SRG10CU011XQ02_input||..\SRG_init_1.fgi|74|97|Socket|
R|VAR|20SRG10CU012XQ02_input|0|..\SRG_vlv.fgi|477.5|478|Gidra:dat_ana_2_handler|
O|VAR|20SRG10CU012XQ02_input||..\SRG_init_1.fgi|74|89|Socket|
R|VAR|20SRG10AA247XH51||..\SRG_logic.fgi|210.5|94|Socket|
O|VAR|20SRG10AA247XH51|0|..\SRG_vlv.fgi|505|605|Gidra:klapan_man|
R|VAR|20SRG10AA247XH52||..\SRG_logic.fgi|210.5|61|Socket|
O|VAR|20SRG10AA247XH52|1|..\SRG_vlv.fgi|505|605|Gidra:klapan_man|
R|VAR|20SRG10AA315XH51||..\SRG_logic.fgi|467.5|69|Socket|
O|VAR|20SRG10AA315XH51|0|..\SRG_vlv.fgi|690|629|Gidra:klapan_man|
R|VAR|20SRG10AA315XH52||..\SRG_logic.fgi|467.5|102|Socket|
O|VAR|20SRG10AA315XH52|1|..\SRG_vlv.fgi|690|629|Gidra:klapan_man|
R|VAR|20SRG10CU013XQ02_input|0|..\SRG_vlv.fgi|477.5|465|Gidra:dat_ana_2_handler|
O|VAR|20SRG10CU013XQ02_input||..\SRG_init_1.fgi|74|81|Socket|
O|VAR|20SRG10AA247YA21||..\SRG_logic.fgi|283.5|105|Socket|
R|VAR|20SRG10AA247YA21|-1|..\SRG_vlv.fgi|505|605|Gidra:klapan_man|
O|VAR|20SRG10AA247YA22||..\SRG_logic.fgi|283.5|72|Socket|
R|VAR|20SRG10AA247YA22|-1|..\SRG_vlv.fgi|505|605|Gidra:klapan_man|
O|VAR|20SRG10AA315YA21||..\SRG_logic.fgi|540.5|80|Socket|
R|VAR|20SRG10AA315YA21|-1|..\SRG_vlv.fgi|690|629|Gidra:klapan_man|
O|VAR|20SRG10AA315YA22||..\SRG_logic.fgi|540.5|113|Socket|
R|VAR|20SRG10AA315YA22|-1|..\SRG_vlv.fgi|690|629|Gidra:klapan_man|
R|VAR|20SRG10CP010XQ01_input|0|..\SRG_vlv.fgi|169|602|Gidra:dat_ana_2_handler|
O|VAR|20SRG10CP010XQ01_input||..\SRG_init.fgi|72|224|Socket|
O|VAR|20SRG10CQ001XQ01|-1|..\SRG_vlv.fgi|112.5|658|Gidra:dat_ana_2_handler|
R|VAR|20SRG10CQ001XQ01|-1|..\SRG_vlv.fgi|722.75|404.98|Gidra:reg_ras_man|
R|VAR|20SRG10CU014XQ02_input|0|..\SRG_vlv.fgi|477.5|452|Gidra:dat_ana_2_handler|
O|VAR|20SRG10CU014XQ02_input||..\SRG_init_1.fgi|74|73|Socket|
R|VAR|20SRG10AA276XH51||..\SRG_logic.fgi|329.5|142|Socket|
O|VAR|20SRG10AA276XH51|0|..\SRG_vlv.fgi|478|378|Gidra:klapan_man|
R|VAR|20SRG10AA276XH52||..\SRG_logic.fgi|329.5|169|Socket|
O|VAR|20SRG10AA276XH52|1|..\SRG_vlv.fgi|478|378|Gidra:klapan_man|
R|VAR|20SRG10CP011XQ01_input|0|..\SRG_vlv.fgi|197|588|Gidra:dat_ana_patm_handler|
O|VAR|20SRG10CP011XQ01_input||..\SRG_init.fgi|72|193|Socket|
O|VAR|20SRG10AA101YA21||..\SRG_logic.fgi|173.5|257|Socket|
R|VAR|20SRG10AA101YA21|-1|..\SRG_vlv.fgi|241|749|Gidra:klapan_man|
O|VAR|20SRG10AA101YA22||..\SRG_logic.fgi|79|259|Socket|
R|VAR|20SRG10AA101YA22|-1|..\SRG_vlv.fgi|241|749|Gidra:klapan_man|
R|VAR|20SRG10CU015XQ02_input|0|..\SRG_vlv.fgi|477.5|439|Gidra:dat_ana_2_handler|
O|VAR|20SRG10CU015XQ02_input||..\SRG_init_1.fgi|74|65|Socket|
R|VAR|20SRG10CF060XQ01_input|0|..\SRG_vlv.fgi|549.5|276|Gidra:dat_ana_2_handler|
O|VAR|20SRG10CF060XQ01_input||..\SRG_init_1.fgi|162|245|Socket|
O|VAR|20SRG10AA276YA21||..\SRG_logic.fgi|408.5|165|Socket|
R|VAR|20SRG10AA276YA21|-1|..\SRG_vlv.fgi|478|378|Gidra:klapan_man|
O|VAR|20SRG10AA276YA22||..\SRG_logic.fgi|405.5|211|Socket|
R|VAR|20SRG10AA276YA22|-1|..\SRG_vlv.fgi|478|378|Gidra:klapan_man|
R|VAR|20SRG10CP012XQ01_input|0|..\SRG_vlv.fgi|169|588|Gidra:dat_ana_2_handler|
O|VAR|20SRG10CP012XQ01_input||..\SRG_init.fgi|72|189|Socket|
R|VAR|20SRG10CU016XQ02_input|0|..\SRG_vlv.fgi|476.5|276|Gidra:dat_ana_2_handler|
O|VAR|20SRG10CU016XQ02_input||..\SRG_init_1.fgi|162|177|Socket|
R|VAR|20SRG10CF061XQ01_input|0|..\SRG_vlv.fgi|700.5|517|Gidra:dat_ana_2_handler|
O|VAR|20SRG10CF061XQ01_input||..\SRG_init_1.fgi|248|41|Socket|
I|SOCK|20SRG10CP025XQ01||..\SRG_logic.fgi|117|186|Socket|
I|SOCK|20SRG10CP025XQ01||..\SRG_logic.fgi|31|93|Socket|
O|VAR|SRG10_PSS3_automatic_mode||..\SRG_logic.fgi|536|379|Socket|
R|VAR|SRG10_PSS3_automatic_mode||..\SRG_logic.fgi|481|315|Socket|
R|VAR|20SRG10CP013XQ01_input|0|..\SRG_vlv.fgi|197|574|Gidra:dat_ana_patm_handler|
O|VAR|20SRG10CP013XQ01_input||..\SRG_init.fgi|72|158|Socket|
R|VAR|20SRG10CU017XQ02_input|0|..\SRG_vlv.fgi|476.5|263|Gidra:dat_ana_2_handler|
O|VAR|20SRG10CU017XQ02_input||..\SRG_init_1.fgi|162|169|Socket|
R|VAR|20SRG10CF062XQ01_input|0|..\SRG_vlv.fgi|650.5|556|Gidra:dat_ana_2_handler|
O|VAR|20SRG10CF062XQ01_input||..\SRG_init_1.fgi|248|257|Socket|
R|VAR|20SRG10CP014XQ01_input|0|..\SRG_vlv.fgi|169|574|Gidra:dat_ana_2_handler|
O|VAR|20SRG10CP014XQ01_input||..\SRG_init.fgi|72|154|Socket|
R|VAR|20SRG10CU018XQ02_input|0|..\SRG_vlv.fgi|476.5|250|Gidra:dat_ana_2_handler|
O|VAR|20SRG10CU018XQ02_input||..\SRG_init_1.fgi|162|161|Socket|
R|VAR|20SRG10CF063XQ01_input|0|..\SRG_vlv.fgi|650.5|543|Gidra:dat_ana_2_handler|
O|VAR|20SRG10CF063XQ01_input||..\SRG_init_1.fgi|248|253|Socket|
R|VAR|20SRG10CP015XQ01_input|0|..\SRG_vlv.fgi|197|560|Gidra:dat_ana_patm_handler|
O|VAR|20SRG10CP015XQ01_input||..\SRG_init.fgi|164|386|Socket|
R|VAR|20SRG10CP015XQ01||..\SRG_logic.fgi|117|216|Socket|
R|VAR|20SRG10CP015XQ01||..\SRG_logic.fgi|31|163|Socket|
R|VAR|20SRG10CP015XQ01|-1|..\SRG_logic.fgi|174.75|331.98|Gidra:reg_ras_man|
O|VAR|20SRG10CP015XQ01|-1|..\SRG_vlv.fgi|197|560|Gidra:dat_ana_patm_handler|
R|VAR|20SRG10CU019XQ02_input|0|..\SRG_vlv.fgi|476.5|237|Gidra:dat_ana_2_handler|
O|VAR|20SRG10CU019XQ02_input||..\SRG_init_1.fgi|162|153|Socket|
R|VAR|20SRG10CF064XQ01_input|0|..\SRG_vlv.fgi|650.5|530|Gidra:dat_ana_2_handler|
O|VAR|20SRG10CF064XQ01_input||..\SRG_init_1.fgi|248|249|Socket|
R|VAR|20SRG10CP016XQ01_input|0|..\SRG_vlv.fgi|169|560|Gidra:dat_ana_2_handler|
O|VAR|20SRG10CP016XQ01_input||..\SRG_init.fgi|164|382|Socket|
R|VAR|20SRG10CF065XQ01_input|0|..\SRG_vlv.fgi|650.5|517|Gidra:dat_ana_2_handler|
O|VAR|20SRG10CF065XQ01_input||..\SRG_init_1.fgi|248|245|Socket|
R|VAR|20SRG10CP017XQ01_input|0|..\SRG_vlv.fgi|197|546|Gidra:dat_ana_patm_handler|
O|VAR|20SRG10CP017XQ01_input||..\SRG_init.fgi|164|333|Socket|
R|VAR|20SRG10CT013XQ01_input|0|..\SRG_vlv.fgi|141|490|Gidra:dat_ana_2_handler|
O|VAR|20SRG10CT013XQ01_input||..\SRG_init.fgi|164|181|Socket|
R|VAR|20SRG10CP018XQ01_input|0|..\SRG_vlv.fgi|169|546|Gidra:dat_ana_2_handler|
O|VAR|20SRG10CP018XQ01_input||..\SRG_init.fgi|164|329|Socket|
R|VAR|20SRG10AA294XH51||..\SRG_logic.fgi|329.5|179|Socket|
O|VAR|20SRG10AA294XH51|0|..\SRG_vlv.fgi|450|330|Gidra:klapan_man|
R|VAR|20SRG10CT014XQ01_input|0|..\SRG_vlv.fgi|141|476|Gidra:dat_ana_2_handler|
O|VAR|20SRG10CT014XQ01_input||..\SRG_init.fgi|164|142|Socket|
R|VAR|20SRG10CP019XQ01_input|0|..\SRG_vlv.fgi|197|532|Gidra:dat_ana_patm_handler|
O|VAR|20SRG10CP019XQ01_input||..\SRG_init.fgi|164|298|Socket|
O|VAR|20SRG10AA294YA21||..\SRG_logic.fgi|397.5|224|Socket|
R|VAR|20SRG10AA294YA21|-1|..\SRG_vlv.fgi|450|330|Gidra:klapan_man|
R|VAR|20SRG10CT015XQ01_input|0|..\SRG_vlv.fgi|84|588|Gidra:dat_ana_2_handler|
O|VAR|20SRG10CT015XQ01_input||..\SRG_init_1.fgi|74|209|Socket|
R|VAR|20SRG10AA254XH51||..\SRG_logic.fgi|210.5|203|Socket|
O|VAR|20SRG10AA254XH51|0|..\SRG_vlv.fgi|491|581|Gidra:klapan_man|
R|VAR|20SRG10CT016XQ01_input|0|..\SRG_vlv.fgi|84|560|Gidra:dat_ana_2_handler|
O|VAR|20SRG10CT016XQ01_input||..\SRG_init_1.fgi|162|209|Socket|
O|VAR|20SRG10AA117YA21||..\SRG_logic.fgi|173.5|209|Socket|
R|VAR|20SRG10AA117YA21|-1|..\SRG_vlv.fgi|465|749|Gidra:klapan_man|
O|VAR|20SRG10AA117YA22||..\SRG_logic.fgi|79|147|Socket|
R|VAR|20SRG10AA117YA22|-1|..\SRG_vlv.fgi|465|749|Gidra:klapan_man|
R|VAR|20SRG10AA322XH51||..\SRG_logic.fgi|450.5|203|Socket|
O|VAR|20SRG10AA322XH51|0|..\SRG_vlv.fgi|704|581|Gidra:klapan_man|
R|VAR|20SRG10CP025XQ01_up_alarm_setpoint||..\SRG_logic.fgi|120|184|Socket|
R|VAR|20SRG10CP025XQ01_up_alarm_setpoint||..\SRG_logic.fgi|34|91|Socket|
O|VAR|20SRG10CP025XQ01_up_alarm_setpoint|-1|..\SRG_vlv.fgi|197|490|Gidra:dat_ana_patm_handler|
O|VAR|20SRG10AA254YA21||..\SRG_logic.fgi|278.5|248|Socket|
R|VAR|20SRG10AA254YA21|-1|..\SRG_vlv.fgi|491|581|Gidra:klapan_man|
R|VAR|20SRG10CT017XQ01_input|0|..\SRG_vlv.fgi|84|532|Gidra:dat_ana_2_handler|
O|VAR|20SRG10CT017XQ01_input||..\SRG_init_1.fgi|248|209|Socket|
I|SOCK|20SRG10CP003XQ01||..\SRG_logic.fgi|117|252|Socket|
I|SOCK|20SRG10CP003XQ01||..\SRG_logic.fgi|31|247|Socket|
O|VAR|20SRG10AA322YA21||..\SRG_logic.fgi|518.5|248|Socket|
R|VAR|20SRG10AA322YA21|-1|..\SRG_vlv.fgi|704|581|Gidra:klapan_man|
I|SOCK|20SRG10CP023XQ01_up_alarm_setpoint||..\SRG_logic.fgi|120|190|Socket|
I|SOCK|20SRG10CP023XQ01_up_alarm_setpoint||..\SRG_logic.fgi|34|105|Socket|
O|VAR|SRG10_PSS1_ruch_mode||..\SRG_logic.fgi|311|359|Socket|
R|VAR|SRG10_PSS1_ruch_mode||..\SRG_logic.fgi|310.5|326|Socket|
R|VAR|20SRG10CT018XQ01_input|0|..\SRG_vlv.fgi|84|574|Gidra:dat_ana_2_handler|
O|VAR|20SRG10CT018XQ01_input||..\SRG_init_1.fgi|74|205|Socket|
R|VAR|20SRG10AA283XH51||..\SRG_logic.fgi|329.5|223|Socket|
O|VAR|20SRG10AA283XH51|0|..\SRG_vlv.fgi|422|402|Gidra:klapan_man|
R|VAR|20SRG10CU020XQ02_input|0|..\SRG_vlv.fgi|476.5|224|Gidra:dat_ana_2_handler|
O|VAR|20SRG10CU020XQ02_input||..\SRG_init_1.fgi|162|145|Socket|
O|VAR|SRG10_PSS2_ruch_mode||..\SRG_logic.fgi|422|359|Socket|
R|VAR|SRG10_PSS2_ruch_mode||..\SRG_logic.fgi|421.5|326|Socket|
R|VAR|20SRG10CT019XQ01_input|0|..\SRG_vlv.fgi|84|546|Gidra:dat_ana_2_handler|
O|VAR|20SRG10CT019XQ01_input||..\SRG_init_1.fgi|162|205|Socket|
O|VAR|20SRG10AA283YA21||..\SRG_logic.fgi|397.5|268|Socket|
R|VAR|20SRG10AA283YA21|-1|..\SRG_vlv.fgi|422|402|Gidra:klapan_man|
R|VAR|20SRG10CU021XQ02_input|0|..\SRG_vlv.fgi|476.5|211|Gidra:dat_ana_2_handler|
O|VAR|20SRG10CU021XQ02_input||..\SRG_init_1.fgi|162|137|Socket|
O|VAR|SRG10_PSS3_ruch_mode||..\SRG_logic.fgi|534|359|Socket|
R|VAR|SRG10_PSS3_ruch_mode||..\SRG_logic.fgi|533.5|326|Socket|
O|VAR|20SRG10CQ006XQ01|-1|..\SRG_vlv.fgi|112.5|518|Gidra:dat_ana_2_handler|
R|VAR|20SRG10CQ006XQ01|-1|..\SRG_vlv.fgi|622.75|278.98|Gidra:reg_ras_man|
R|VAR|20SRG10CU022XQ02_input|0|..\SRG_vlv.fgi|476.5|198|Gidra:dat_ana_2_handler|
O|VAR|20SRG10CU022XQ02_input||..\SRG_init_1.fgi|162|129|Socket|
R|VAR|20SRG10AA243XH51||..\SRG_logic.fgi|210.5|165|Socket|
O|VAR|20SRG10AA243XH51|0|..\SRG_vlv.fgi|421|629|Gidra:klapan_man|
R|VAR|20SRG10AA243XH52||..\SRG_logic.fgi|210.5|138|Socket|
O|VAR|20SRG10AA243XH52|1|..\SRG_vlv.fgi|421|629|Gidra:klapan_man|
O|VAR|20SRG10AA106YA21||..\SRG_logic.fgi|79|212|Socket|
R|VAR|20SRG10AA106YA21|-1|..\SRG_vlv.fgi|311|749|Gidra:klapan_man|
R|VAR|20SRG10CM001XQ01_input|0|..\SRG_vlv.fgi|112.5|644|Gidra:dat_ana_2_handler|
O|VAR|20SRG10CM001XQ01_input||..\SRG_init.fgi|72|365|Socket|
R|VAR|20SRG10CU023XQ02_input|0|..\SRG_vlv.fgi|427.5|276|Gidra:dat_ana_2_handler|
O|VAR|20SRG10CU023XQ02_input||..\SRG_init_1.fgi|162|121|Socket|
O|VAR|20SRG10AA243YA21||..\SRG_logic.fgi|286.5|207|Socket|
R|VAR|20SRG10AA243YA21|-1|..\SRG_vlv.fgi|421|629|Gidra:klapan_man|
O|VAR|20SRG10AA243YA22||..\SRG_logic.fgi|289.5|161|Socket|
R|VAR|20SRG10AA243YA22|-1|..\SRG_vlv.fgi|421|629|Gidra:klapan_man|
R|VAR|20SRG10CP020XQ01_input|0|..\SRG_vlv.fgi|169|532|Gidra:dat_ana_2_handler|
O|VAR|20SRG10CP020XQ01_input||..\SRG_init.fgi|164|294|Socket|
R|VAR|20SRG10CU024XQ02_input|0|..\SRG_vlv.fgi|427.5|263|Gidra:dat_ana_2_handler|
O|VAR|20SRG10CU024XQ02_input||..\SRG_init_1.fgi|162|113|Socket|
R|VAR|20SRG10CP021XQ01_input|0|..\SRG_vlv.fgi|197|518|Gidra:dat_ana_patm_handler|
O|VAR|20SRG10CP021XQ01_input||..\SRG_init.fgi|164|263|Socket|
R|VAR|20SRG10CU025XQ02_input|0|..\SRG_vlv.fgi|427.5|250|Gidra:dat_ana_2_handler|
O|VAR|20SRG10CU025XQ02_input||..\SRG_init_1.fgi|162|105|Socket|
R|VAR|20SRG10CP022XQ01_input|0|..\SRG_vlv.fgi|169|518|Gidra:dat_ana_2_handler|
O|VAR|20SRG10CP022XQ01_input||..\SRG_init.fgi|164|259|Socket|
R|VAR|20SRG10CU026XQ02_input|0|..\SRG_vlv.fgi|427.5|237|Gidra:dat_ana_2_handler|
O|VAR|20SRG10CU026XQ02_input||..\SRG_init_1.fgi|162|97|Socket|
I|SOCK|20SRG10CP021XQ01||..\SRG_logic.fgi|117|198|Socket|
I|SOCK|20SRG10CP021XQ01||..\SRG_logic.fgi|31|121|Socket|
R|VAR|20SRG10CP023XQ01_input|0|..\SRG_vlv.fgi|197|504|Gidra:dat_ana_patm_handler|
O|VAR|20SRG10CP023XQ01_input||..\SRG_init.fgi|164|228|Socket|
R|VAR|20SRG10CU027XQ02_input|0|..\SRG_vlv.fgi|427.5|224|Gidra:dat_ana_2_handler|
O|VAR|20SRG10CU027XQ02_input||..\SRG_init_1.fgi|162|89|Socket|
R|VAR|20SRG10CP024XQ01_input|0|..\SRG_vlv.fgi|169|504|Gidra:dat_ana_2_handler|
O|VAR|20SRG10CP024XQ01_input||..\SRG_init.fgi|164|224|Socket|
R|VAR|20SRG10CQ001XQ01_input|0|..\SRG_vlv.fgi|112.5|658|Gidra:dat_ana_2_handler|
O|VAR|20SRG10CQ001XQ01_input||..\SRG_init.fgi|72|361|Socket|
R|VAR|20SRG10CU028XQ02_input|0|..\SRG_vlv.fgi|427.5|211|Gidra:dat_ana_2_handler|
O|VAR|20SRG10CU028XQ02_input||..\SRG_init_1.fgi|162|81|Socket|
I|SOCK|20SRG10CP019XQ01||..\SRG_logic.fgi|117|204|Socket|
I|SOCK|20SRG10CP019XQ01||..\SRG_logic.fgi|31|135|Socket|
R|VAR|20SRG10CT020XQ01_input|0|..\SRG_vlv.fgi|84|518|Gidra:dat_ana_2_handler|
O|VAR|20SRG10CT020XQ01_input||..\SRG_init_1.fgi|248|205|Socket|
R|VAR|20SRG10CP025XQ01_input|0|..\SRG_vlv.fgi|197|490|Gidra:dat_ana_patm_handler|
O|VAR|20SRG10CP025XQ01_input||..\SRG_init.fgi|164|189|Socket|
R|VAR|20SRG10CP011XQ01||..\SRG_logic.fgi|117|228|Socket|
R|VAR|20SRG10CP011XQ01||..\SRG_logic.fgi|31|191|Socket|
R|VAR|20SRG10CP011XQ01|-1|..\SRG_logic.fgi|174.75|349.98|Gidra:reg_ras_man|
O|VAR|20SRG10CP011XQ01|-1|..\SRG_vlv.fgi|197|588|Gidra:dat_ana_patm_handler|
R|VAR|20SRG10CU029XQ02_input|0|..\SRG_vlv.fgi|427.5|198|Gidra:dat_ana_2_handler|
O|VAR|20SRG10CU029XQ02_input||..\SRG_init_1.fgi|162|73|Socket|
R|VAR|20SRG10CP026XQ01_input|0|..\SRG_vlv.fgi|169|490|Gidra:dat_ana_2_handler|
O|VAR|20SRG10CP026XQ01_input||..\SRG_init.fgi|164|185|Socket|
O|VAR|20SRG10AA124YA21||..\SRG_logic.fgi|79|86|Socket|
R|VAR|20SRG10AA124YA21|-1|..\SRG_vlv.fgi|241|723|Gidra:klapan_man|
O|VAR|SRG1_automatic_mode||..\SRG_logic.fgi|84|379|Socket|
R|VAR|SRG1_automatic_mode||..\SRG_logic.fgi|51.5|297|Socket|
R|VAR|20SRG10CP015XQ01_up_alarm_setpoint||..\SRG_logic.fgi|120|214|Socket|
R|VAR|20SRG10CP015XQ01_up_alarm_setpoint||..\SRG_logic.fgi|34|161|Socket|
O|VAR|20SRG10CP015XQ01_up_alarm_setpoint|-1|..\SRG_vlv.fgi|197|560|Gidra:dat_ana_patm_handler|
R|VAR|20SRG10CP027XQ01_input|0|..\SRG_vlv.fgi|197|476|Gidra:dat_ana_patm_handler|
O|VAR|20SRG10CP027XQ01_input||..\SRG_init.fgi|164|150|Socket|
I|SOCK|20SRG10CP013XQ01_up_alarm_setpoint||..\SRG_logic.fgi|120|220|Socket|
I|SOCK|20SRG10CP013XQ01_up_alarm_setpoint||..\SRG_logic.fgi|34|175|Socket|
R|VAR|20SRG10CP009XQ01||..\SRG_logic.fgi|117|234|Socket|
R|VAR|20SRG10CP009XQ01||..\SRG_logic.fgi|31|205|Socket|
R|VAR|20SRG10CP009XQ01|-1|..\SRG_logic.fgi|150.75|349.98|Gidra:reg_ras_man|
O|VAR|20SRG10CP009XQ01|-1|..\SRG_vlv.fgi|197|602|Gidra:dat_ana_patm_handler|
R|VAR|20SRG10CP028XQ01_input|0|..\SRG_vlv.fgi|169|476|Gidra:dat_ana_2_handler|
O|VAR|20SRG10CP028XQ01_input||..\SRG_init.fgi|164|146|Socket|
R|VAR|20SRG10AA259XH51||..\SRG_logic.fgi|210.5|183|Socket|
O|VAR|20SRG10AA259XH51|0|..\SRG_vlv.fgi|519|581|Gidra:klapan_man|
O|VAR|20SRG10AA202|-1|..\SRG_vlv.fgi|621.75|382.98|Gidra:reg_ras_man|
R|VAR|20SRG10AA202||..\SRG_vlv.fgi|607.5|373|Socket|
O|VAR|20SRG10AA203|-1|..\SRG_vlv.fgi|621.75|357.98|Gidra:reg_ras_man|
R|VAR|20SRG10AA203||..\SRG_vlv.fgi|607.5|348|Socket|
O|VAR|20SRG10AA204|-1|..\SRG_vlv.fgi|621.75|330.98|Gidra:reg_ras_man|
R|VAR|20SRG10AA204||..\SRG_vlv.fgi|607.5|321|Socket|
O|VAR|20SRG10AA205|-1|..\SRG_vlv.fgi|621.75|304.98|Gidra:reg_ras_man|
R|VAR|20SRG10AA205||..\SRG_vlv.fgi|607.5|295|Socket|
O|VAR|20SRG10AA206|-1|..\SRG_vlv.fgi|622.75|278.98|Gidra:reg_ras_man|
R|VAR|20SRG10AA206||..\SRG_vlv.fgi|608.5|269|Socket|
O|VAR|20SRG10AA207|-1|..\SRG_vlv.fgi|623.75|253.98|Gidra:reg_ras_man|
R|VAR|20SRG10AA207||..\SRG_vlv.fgi|609.5|244|Socket|
O|VAR|20SRG10AA208|-1|..\SRG_vlv.fgi|671.75|405.98|Gidra:reg_ras_man|
R|VAR|20SRG10AA208||..\SRG_vlv.fgi|657.5|396|Socket|
O|VAR|20SRG10AA209|-1|..\SRG_vlv.fgi|671.75|381.98|Gidra:reg_ras_man|
R|VAR|20SRG10AA209||..\SRG_vlv.fgi|657.5|372|Socket|
O|VAR|20SRG10AA210|-1|..\SRG_vlv.fgi|671.75|356.98|Gidra:reg_ras_man|
R|VAR|20SRG10AA210||..\SRG_vlv.fgi|657.5|347|Socket|
O|VAR|20SRG10AA211|-1|..\SRG_vlv.fgi|671.75|329.98|Gidra:reg_ras_man|
R|VAR|20SRG10AA211||..\SRG_vlv.fgi|657.5|320|Socket|
O|VAR|20SRG10AA212|-1|..\SRG_vlv.fgi|671.75|303.98|Gidra:reg_ras_man|
R|VAR|20SRG10AA212||..\SRG_vlv.fgi|657.5|294|Socket|
O|VAR|20SRG10AA213|-1|..\SRG_vlv.fgi|671.75|277.98|Gidra:reg_ras_man|
R|VAR|20SRG10AA213||..\SRG_vlv.fgi|657.5|268|Socket|
O|VAR|20SRG10AA214|-1|..\SRG_vlv.fgi|671.75|252.98|Gidra:reg_ras_man|
R|VAR|20SRG10AA214||..\SRG_vlv.fgi|657.5|243|Socket|
O|VAR|20SRG10AA215|-1|..\SRG_vlv.fgi|722.75|404.98|Gidra:reg_ras_man|
R|VAR|20SRG10AA215||..\SRG_vlv.fgi|708.5|395|Socket|
O|VAR|20SRG10AA216|-1|..\SRG_vlv.fgi|722.75|380.98|Gidra:reg_ras_man|
R|VAR|20SRG10AA216||..\SRG_vlv.fgi|708.5|371|Socket|
O|VAR|20SRG10AA217|-1|..\SRG_vlv.fgi|722.75|355.98|Gidra:reg_ras_man|
R|VAR|20SRG10AA217||..\SRG_vlv.fgi|708.5|346|Socket|
O|VAR|20SRG10AA218|-1|..\SRG_vlv.fgi|722.75|328.98|Gidra:reg_ras_man|
R|VAR|20SRG10AA218||..\SRG_vlv.fgi|708.5|319|Socket|
O|VAR|20SRG10AA220|-1|..\SRG_vlv.fgi|722.75|302.98|Gidra:reg_ras_man|
R|VAR|20SRG10AA220||..\SRG_vlv.fgi|708.5|293|Socket|
O|VAR|20SRG10AA222|-1|..\SRG_vlv.fgi|723.75|276.98|Gidra:reg_ras_man|
R|VAR|20SRG10AA222||..\SRG_vlv.fgi|709.5|267|Socket|
R|VAR|20SRG10AA290XH51||..\SRG_logic.fgi|329.5|195|Socket|
O|VAR|20SRG10AA290XH51|0|..\SRG_vlv.fgi|436|330|Gidra:klapan_man|
R|VAR|20SRG10AA327XH51||..\SRG_logic.fgi|450.5|183|Socket|
O|VAR|20SRG10AA327XH51|0|..\SRG_vlv.fgi|732|653|Gidra:klapan_man|
R|VAR|20SRG10CU001XQ01_input|0|..\SRG_vlv.fgi|527.5|491|Gidra:dat_ana_2_handler|
O|VAR|20SRG10CU001XQ01_input||..\SRG_init_1.fgi|74|181|Socket|
R|VAR|20SRG10CP029XQ01_input|0|..\SRG_vlv.fgi|338|658|Gidra:dat_ana_2_handler|
O|VAR|20SRG10CP029XQ01_input||..\SRG_init_1.fgi|74|201|Socket|
O|VAR|20SRG10AA259YA21||..\SRG_logic.fgi|278.5|228|Socket|
R|VAR|20SRG10AA259YA21|-1|..\SRG_vlv.fgi|519|581|Gidra:klapan_man|
O|VAR|20SRG10AA290YA21||..\SRG_logic.fgi|397.5|240|Socket|
R|VAR|20SRG10AA290YA21|-1|..\SRG_vlv.fgi|436|330|Gidra:klapan_man|
O|VAR|20SRG10AA327YA21||..\SRG_logic.fgi|518.5|228|Socket|
R|VAR|20SRG10AA327YA21|-1|..\SRG_vlv.fgi|732|653|Gidra:klapan_man|
R|VAR|20SRG10CU002XQ01_input|0|..\SRG_vlv.fgi|527.5|478|Gidra:dat_ana_2_handler|
O|VAR|20SRG10CU002XQ01_input||..\SRG_init_1.fgi|74|173|Socket|
O|VAR|20SRG10CQ013XQ01|-1|..\SRG_vlv.fgi|112.5|322|Gidra:dat_ana_2_handler|
R|VAR|20SRG10CQ013XQ01|-1|..\SRG_vlv.fgi|671.75|277.98|Gidra:reg_ras_man|
R|VAR|20SRG10CQ013XQ01|-1|..\SRG_vlv.fgi|722.75|380.98|Gidra:reg_ras_man|
R|VAR|20SRG10AA250XH51||..\SRG_logic.fgi|210.5|219|Socket|
O|VAR|20SRG10AA250XH51|0|..\SRG_vlv.fgi|435|581|Gidra:klapan_man|
R|VAR|20SRG10AA288XH51||..\SRG_logic.fgi|329.5|203|Socket|
O|VAR|20SRG10AA288XH51|0|..\SRG_vlv.fgi|436|378|Gidra:klapan_man|
R|VAR|20SRG10CU003XQ01_input|0|..\SRG_vlv.fgi|527.5|465|Gidra:dat_ana_2_handler|
O|VAR|20SRG10CU003XQ01_input||..\SRG_init_1.fgi|74|165|Socket|
O|VAR|20SRG10AA113YA21||..\SRG_logic.fgi|173.5|221|Socket|
R|VAR|20SRG10AA113YA21|-1|..\SRG_vlv.fgi|409|749|Gidra:klapan_man|
O|VAR|20SRG10AA113YA22||..\SRG_logic.fgi|79|175|Socket|
R|VAR|20SRG10AA113YA22|-1|..\SRG_vlv.fgi|409|749|Gidra:klapan_man|
R|VAR|20SRG10CU101XQ01_input|0|..\SRG_vlv.fgi|84|504|Gidra:dat_ana_2_handler|
O|VAR|20SRG10CU101XQ01_input||..\SRG_init_1.fgi|74|193|Socket|
R|VAR|20SRG10CT051XQ02_input|0|..\SRG_vlv.fgi|527.5|439|Gidra:dat_ana_2_handler|
O|VAR|20SRG10CT051XQ02_input||..\SRG_init_1.fgi|74|225|Socket|
I|SOCK|20SRG10CP019XQ01_up_alarm_setpoint||..\SRG_logic.fgi|120|202|Socket|
I|SOCK|20SRG10CP019XQ01_up_alarm_setpoint||..\SRG_logic.fgi|34|133|Socket|
O|VAR|20SRG10AA250YA21||..\SRG_logic.fgi|278.5|264|Socket|
R|VAR|20SRG10AA250YA21|-1|..\SRG_vlv.fgi|435|581|Gidra:klapan_man|
O|VAR|20SRG10AA288YA21||..\SRG_logic.fgi|397.5|248|Socket|
R|VAR|20SRG10AA288YA21|-1|..\SRG_vlv.fgi|436|378|Gidra:klapan_man|
R|VAR|20SRG10CU004XQ01_input|0|..\SRG_vlv.fgi|527.5|452|Gidra:dat_ana_2_handler|
O|VAR|20SRG10CU004XQ01_input||..\SRG_init_1.fgi|74|157|Socket|
R|VAR|20SRG10CU102XQ01_input|0|..\SRG_vlv.fgi|84|476|Gidra:dat_ana_2_handler|
O|VAR|20SRG10CU102XQ01_input||..\SRG_init_1.fgi|162|193|Socket|
R|VAR|20SRG10CT052XQ02_input|0|..\SRG_vlv.fgi|552.5|543|Gidra:dat_ana_2_handler|
O|VAR|20SRG10CT052XQ02_input||..\SRG_init_1.fgi|74|217|Socket|
R|VAR|20SRG10CU005XQ01_input|0|..\SRG_vlv.fgi|527.5|504|Gidra:dat_ana_2_handler|
O|VAR|20SRG10CU005XQ01_input||..\SRG_init_1.fgi|74|149|Socket|
R|VAR|20SRG10AA248XH51||..\SRG_logic.fgi|210.5|98|Socket|
R|VAR|20SRG10AA248XH51||..\SRG_logic.fgi|338.5|98|Socket|
R|VAR|20SRG10AA248XH51||..\SRG_logic.fgi|467.5|98|Socket|
O|VAR|20SRG10AA248XH51|0|..\SRG_vlv.fgi|519|605|Gidra:klapan_man|
R|VAR|20SRG10AA248XH52||..\SRG_logic.fgi|210.5|65|Socket|
R|VAR|20SRG10AA248XH52||..\SRG_logic.fgi|338.5|65|Socket|
R|VAR|20SRG10AA248XH52||..\SRG_logic.fgi|467.5|65|Socket|
O|VAR|20SRG10AA248XH52|1|..\SRG_vlv.fgi|519|605|Gidra:klapan_man|
R|VAR|20SRG10GC408XQ01_input|0|..\SRG_vlv.fgi|281|658|Gidra:dat_ana_2_handler|
O|VAR|20SRG10GC408XQ01_input||..\SRG_init_1.fgi|74|241|Socket|
R|VAR|20SRG10CU103XQ01_input|0|..\SRG_vlv.fgi|84|448|Gidra:dat_ana_2_handler|
O|VAR|20SRG10CU103XQ01_input||..\SRG_init_1.fgi|248|193|Socket|
R|VAR|20SRG10CU030XQ02_input|0|..\SRG_vlv.fgi|427.5|185|Gidra:dat_ana_2_handler|
O|VAR|20SRG10CU030XQ02_input||..\SRG_init_1.fgi|162|65|Socket|
R|VAR|20SRG10AA316XH51||..\SRG_logic.fgi|467.5|94|Socket|
O|VAR|20SRG10AA316XH51|0|..\SRG_vlv.fgi|732|605|Gidra:klapan_man|
R|VAR|20SRG10AA316XH52||..\SRG_logic.fgi|467.5|61|Socket|
O|VAR|20SRG10AA316XH52|1|..\SRG_vlv.fgi|732|605|Gidra:klapan_man|
R|VAR|20SRG10CU006XQ01_input|0|..\SRG_vlv.fgi|452.5|491|Gidra:dat_ana_2_handler|
O|VAR|20SRG10CU006XQ01_input||..\SRG_init_1.fgi|74|141|Socket|
R|VAR|20SRG10GC409XQ01_input|0|..\SRG_vlv.fgi|281|616|Gidra:dat_ana_2_handler|
O|VAR|20SRG10GC409XQ01_input||..\SRG_init_1.fgi|162|241|Socket|
O|VAR|20SRG10AA248YA21||..\SRG_logic.fgi|242.5|49|Socket|
R|VAR|20SRG10AA248YA21|-1|..\SRG_vlv.fgi|519|605|Gidra:klapan_man|
O|VAR|20SRG10AA248YA22||..\SRG_logic.fgi|242.5|40|Socket|
R|VAR|20SRG10AA248YA22|-1|..\SRG_vlv.fgi|519|605|Gidra:klapan_man|
R|VAR|20SRG10CT054XQ02_input|0|..\SRG_vlv.fgi|476.5|303|Gidra:dat_ana_2_handler|
O|VAR|20SRG10CT054XQ02_input||..\SRG_init_1.fgi|162|225|Socket|
R|VAR|20SRG10CU031XQ02_input|0|..\SRG_vlv.fgi|700.5|556|Gidra:dat_ana_2_handler|
O|VAR|20SRG10CU031XQ02_input||..\SRG_init_1.fgi|248|177|Socket|
O|VAR|20SRG10AA316YA21||..\SRG_logic.fgi|540.5|105|Socket|
R|VAR|20SRG10AA316YA21|-1|..\SRG_vlv.fgi|732|605|Gidra:klapan_man|
O|VAR|20SRG10AA316YA22||..\SRG_logic.fgi|540.5|72|Socket|
R|VAR|20SRG10AA316YA22|-1|..\SRG_vlv.fgi|732|605|Gidra:klapan_man|
O|VAR|20SRG10CQ002XQ01|-1|..\SRG_vlv.fgi|112.5|630|Gidra:dat_ana_2_handler|
R|VAR|20SRG10CQ002XQ01|-1|..\SRG_vlv.fgi|621.75|382.98|Gidra:reg_ras_man|
R|VAR|20SRG10CU007XQ01_input|0|..\SRG_vlv.fgi|452.5|478|Gidra:dat_ana_2_handler|
O|VAR|20SRG10CU007XQ01_input||..\SRG_init_1.fgi|74|133|Socket|
R|VAR|20SRG10CP027XQ01||..\SRG_logic.fgi|117|180|Socket|
R|VAR|20SRG10CP027XQ01||..\SRG_logic.fgi|31|79|Socket|
R|VAR|20SRG10CP027XQ01|-1|..\SRG_logic.fgi|221.75|384.98|Gidra:reg_ras_man|
O|VAR|20SRG10CP027XQ01|-1|..\SRG_vlv.fgi|197|476|Gidra:dat_ana_patm_handler|
R|VAR|20SRG10CT055XQ02_input|0|..\SRG_vlv.fgi|525.5|303|Gidra:dat_ana_2_handler|
O|VAR|20SRG10CT055XQ02_input||..\SRG_init_1.fgi|162|217|Socket|
R|VAR|20SRG10CU032XQ02_input|0|..\SRG_vlv.fgi|725.5|543|Gidra:dat_ana_2_handler|
O|VAR|20SRG10CU032XQ02_input||..\SRG_init_1.fgi|248|169|Socket|
O|VAR|20SRG10AA102YA21||..\SRG_logic.fgi|79|240|Socket|
R|VAR|20SRG10AA102YA21|-1|..\SRG_vlv.fgi|255|749|Gidra:klapan_man|
R|VAR|20SRG10CU008XQ01_input|0|..\SRG_vlv.fgi|452.5|465|Gidra:dat_ana_2_handler|
O|VAR|20SRG10CU008XQ01_input||..\SRG_init_1.fgi|74|125|Socket|
R|VAR|20SRG10CU033XQ02_input|0|..\SRG_vlv.fgi|725.5|530|Gidra:dat_ana_2_handler|
O|VAR|20SRG10CU033XQ02_input||..\SRG_init_1.fgi|248|161|Socket|
R|VAR|20SRG10CU009XQ01_input|0|..\SRG_vlv.fgi|452.5|452|Gidra:dat_ana_2_handler|
O|VAR|20SRG10CU009XQ01_input||..\SRG_init_1.fgi|74|117|Socket|
R|VAR|20SRG10CP030XQ01_input|0|..\SRG_vlv.fgi|338|644|Gidra:dat_ana_2_handler|
O|VAR|20SRG10CP030XQ01_input||..\SRG_init_1.fgi|74|197|Socket|
R|VAR|20SRG10CT057XQ02_input|0|..\SRG_vlv.fgi|725.5|439|Gidra:dat_ana_2_handler|
O|VAR|20SRG10CT057XQ02_input||..\SRG_init_1.fgi|248|225|Socket|
R|VAR|20SRG10CU034XQ02_input|0|..\SRG_vlv.fgi|725.5|517|Gidra:dat_ana_2_handler|
O|VAR|20SRG10CU034XQ02_input||..\SRG_init_1.fgi|248|153|Socket|
R|VAR|20SRG10CP031XQ01_input|0|..\SRG_vlv.fgi|338|630|Gidra:dat_ana_2_handler|
O|VAR|20SRG10CP031XQ01_input||..\SRG_init_1.fgi|162|201|Socket|
R|VAR|20SRG10CT058XQ02_input|0|..\SRG_vlv.fgi|750.5|556|Gidra:dat_ana_2_handler|
O|VAR|20SRG10CT058XQ02_input||..\SRG_init_1.fgi|248|217|Socket|
R|VAR|20SRG10CU035XQ02_input|0|..\SRG_vlv.fgi|700.5|504|Gidra:dat_ana_2_handler|
O|VAR|20SRG10CU035XQ02_input||..\SRG_init_1.fgi|248|145|Socket|
R|VAR|20SRG10CP005XQ01_up_alarm_setpoint||..\SRG_logic.fgi|120|244|Socket|
R|VAR|20SRG10CP005XQ01_up_alarm_setpoint||..\SRG_logic.fgi|34|231|Socket|
O|VAR|20SRG10CP005XQ01_up_alarm_setpoint|-1|..\SRG_vlv.fgi|197|630|Gidra:dat_ana_patm_handler|
R|VAR|20SRG10CP032XQ01_input|0|..\SRG_vlv.fgi|338|616|Gidra:dat_ana_2_handler|
O|VAR|20SRG10CP032XQ01_input||..\SRG_init_1.fgi|162|197|Socket|
R|VAR|20SRG10CU036XQ02_input|0|..\SRG_vlv.fgi|625.5|491|Gidra:dat_ana_2_handler|
O|VAR|20SRG10CU036XQ02_input||..\SRG_init_1.fgi|248|137|Socket|
I|SOCK|20SRG10CP003XQ01_up_alarm_setpoint||..\SRG_logic.fgi|120|250|Socket|
I|SOCK|20SRG10CP003XQ01_up_alarm_setpoint||..\SRG_logic.fgi|34|245|Socket|
R|VAR|20SRG10CP033XQ01_input|0|..\SRG_vlv.fgi|338|602|Gidra:dat_ana_2_handler|
O|VAR|20SRG10CP033XQ01_input||..\SRG_init_1.fgi|248|201|Socket|
R|VAR|20SRG10CU037XQ02_input|0|..\SRG_vlv.fgi|625.5|478|Gidra:dat_ana_2_handler|
O|VAR|20SRG10CU037XQ02_input||..\SRG_init_1.fgi|248|129|Socket|
R|VAR|20SRG10CP034XQ01_input|0|..\SRG_vlv.fgi|338|588|Gidra:dat_ana_2_handler|
O|VAR|20SRG10CP034XQ01_input||..\SRG_init_1.fgi|248|197|Socket|
R|VAR|20SRG10CM016XQ01_input|0|..\SRG_vlv.fgi|112.5|252|Gidra:dat_ana_2_handler|
O|VAR|20SRG10CM016XQ01_input||..\SRG_init_1.fgi|74|61|Socket|
R|VAR|20SRG10CU038XQ02_input|0|..\SRG_vlv.fgi|625.5|465|Gidra:dat_ana_2_handler|
O|VAR|20SRG10CU038XQ02_input||..\SRG_init_1.fgi|248|121|Socket|
I|SOCK|20SRG10CP015XQ01||..\SRG_logic.fgi|117|216|Socket|
I|SOCK|20SRG10CP015XQ01||..\SRG_logic.fgi|31|163|Socket|
R|VAR|20SRG10CP035XQ01_input|0|..\SRG_vlv.fgi|225|658|Gidra:dat_ana_patm_handler|
O|VAR|20SRG10CP035XQ01_input||..\SRG_init.fgi|72|390|Socket|
R|VAR|20SRG10GC410XQ01_input|0|..\SRG_vlv.fgi|281|574|Gidra:dat_ana_2_handler|
O|VAR|20SRG10GC410XQ01_input||..\SRG_init_1.fgi|248|241|Socket|
O|VAR|20SRG10CQ020XQ01|-1|..\SRG_vlv.fgi|112.5|196|Gidra:dat_ana_2_handler|
R|VAR|20SRG10CQ020XQ01|-1|..\SRG_vlv.fgi|723.75|276.98|Gidra:reg_ras_man|
R|VAR|20SRG10CM017XQ01_input|0|..\SRG_vlv.fgi|112.5|238|Gidra:dat_ana_2_handler|
O|VAR|20SRG10CM017XQ01_input||..\SRG_init_1.fgi|162|61|Socket|
R|VAR|20SRG10CU039XQ02_input|0|..\SRG_vlv.fgi|625.5|452|Gidra:dat_ana_2_handler|
O|VAR|20SRG10CU039XQ02_input||..\SRG_init_1.fgi|248|113|Socket|
R|VAR|20SRG10CP036XQ01_input|0|..\SRG_vlv.fgi|225|644|Gidra:dat_ana_patm_handler|
O|VAR|20SRG10CP036XQ01_input||..\SRG_init.fgi|164|193|Socket|
O|VAR|20SRG10AA120YA21||..\SRG_logic.fgi|79|114|Socket|
R|VAR|20SRG10AA120YA21|-1|..\SRG_vlv.fgi|507|749|Gidra:klapan_man|
I|SOCK|20SRG10CP009XQ01_up_alarm_setpoint||..\SRG_logic.fgi|120|232|Socket|
I|SOCK|20SRG10CP009XQ01_up_alarm_setpoint||..\SRG_logic.fgi|34|203|Socket|
R|VAR|20SRG10CP037XQ01_input|0|..\SRG_vlv.fgi|225|630|Gidra:dat_ana_patm_handler|
O|VAR|20SRG10CP037XQ01_input||..\SRG_init.fgi|164|154|Socket|
R|VAR|20SRG10CP005XQ01||..\SRG_logic.fgi|117|246|Socket|
R|VAR|20SRG10CP005XQ01||..\SRG_logic.fgi|31|233|Socket|
R|VAR|20SRG10CP005XQ01|-1|..\SRG_logic.fgi|150.75|367.98|Gidra:reg_ras_man|
O|VAR|20SRG10CP005XQ01|-1|..\SRG_vlv.fgi|197|630|Gidra:dat_ana_patm_handler|
O|VAR|20SRG10CQ018XQ01|-1|..\SRG_vlv.fgi|112.5|224|Gidra:dat_ana_2_handler|
R|VAR|20SRG10CQ018XQ01|-1|..\SRG_vlv.fgi|722.75|328.98|Gidra:reg_ras_man|
R|VAR|20SRG10CU010XQ01_input|0|..\SRG_vlv.fgi|452.5|439|Gidra:dat_ana_2_handler|
O|VAR|20SRG10CU010XQ01_input||..\SRG_init_1.fgi|74|109|Socket|
R|VAR|20SRG10CP038XQ01_input|0|..\SRG_vlv.fgi|225|616|Gidra:dat_ana_2_handler|
O|VAR|20SRG10CP038XQ01_input||..\SRG_init_1.fgi|336|277|Socket|
O|VAR|SRG1_avt_mode||..\SRG_logic.fgi|82|329|Socket|
R|VAR|SRG1_avt_mode||..\SRG_logic.fgi|58|308|Socket|
R|VAR|SRG1_avt_mode||..\SRG_logic.fgi|34|258|Socket|
R|VAR|SRG1_avt_mode|-1|..\SRG_vlv.fgi|822|289.23|Gidra:pump_handler|
R|VAR|20SRG10AA255XH51||..\SRG_logic.fgi|210.5|199|Socket|
O|VAR|20SRG10AA255XH51|0|..\SRG_vlv.fgi|505|581|Gidra:klapan_man|
O|VAR|20SRG10AA118YA21||..\SRG_logic.fgi|79|128|Socket|
R|VAR|20SRG10AA118YA21|-1|..\SRG_vlv.fgi|479|749|Gidra:klapan_man|
R|VAR|20SRG10AA323XH51||..\SRG_logic.fgi|450.5|199|Socket|
O|VAR|20SRG10AA323XH51|0|..\SRG_vlv.fgi|718|653|Gidra:klapan_man|
R|VAR|20SRG10CU011XQ01_input|0|..\SRG_vlv.fgi|502.5|491|Gidra:dat_ana_2_handler|
O|VAR|20SRG10CU011XQ01_input||..\SRG_init_1.fgi|74|101|Socket|
R|VAR|20SRG10CP039XQ01_input|0|..\SRG_vlv.fgi|225|602|Gidra:dat_ana_2_handler|
O|VAR|20SRG10CP039XQ01_input||..\SRG_init_1.fgi|336|273|Socket|
R|VAR|20SRG10CQ016XQ01_input|0|..\SRG_vlv.fgi|366.5|616|Gidra:dat_ana_2_handler|
O|VAR|20SRG10CQ016XQ01_input||..\SRG_init_1.fgi|74|57|Socket|
O|VAR|20SRG10AA255YA21||..\SRG_logic.fgi|278.5|244|Socket|
R|VAR|20SRG10AA255YA21|-1|..\SRG_vlv.fgi|505|581|Gidra:klapan_man|
R|VAR|20SRG10CF001XQ01_input|0|..\SRG_vlv.fgi|26|658|Gidra:dat_ana_2_handler|
O|VAR|20SRG10CF001XQ01_input||..\SRG_init.fgi|72|369|Socket|
O|VAR|20SRG10AA323YA21||..\SRG_logic.fgi|518.5|244|Socket|
R|VAR|20SRG10AA323YA21|-1|..\SRG_vlv.fgi|718|653|Gidra:klapan_man|
R|VAR|20SRG10CU012XQ01_input|0|..\SRG_vlv.fgi|502.5|478|Gidra:dat_ana_2_handler|
O|VAR|20SRG10CU012XQ01_input||..\SRG_init_1.fgi|74|93|Socket|
R|VAR|20SRG10CQ017XQ01_input|0|..\SRG_vlv.fgi|366.5|574|Gidra:dat_ana_2_handler|
O|VAR|20SRG10CQ017XQ01_input||..\SRG_init_1.fgi|162|57|Socket|
R|VAR|20SRG10CF002XQ01_input|0|..\SRG_vlv.fgi|55|658|Gidra:dat_ana_2_handler|
O|VAR|20SRG10CF002XQ01_input||..\SRG_init.fgi|72|374|Socket|
R|VAR|20SRG10AA284XH51||..\SRG_logic.fgi|329.5|219|Socket|
O|VAR|20SRG10AA284XH51|0|..\SRG_vlv.fgi|422|378|Gidra:klapan_man|
R|VAR|20SRG10CU013XQ01_input|0|..\SRG_vlv.fgi|502.5|465|Gidra:dat_ana_2_handler|
O|VAR|20SRG10CU013XQ01_input||..\SRG_init_1.fgi|74|85|Socket|
R|VAR|20SRG10CQ018XQ01_input|0|..\SRG_vlv.fgi|112.5|224|Gidra:dat_ana_2_handler|
O|VAR|20SRG10CQ018XQ01_input||..\SRG_init_1.fgi|248|57|Socket|
R|VAR|GRAY||..\SRG_logic.fgi|280|100|SString|
R|VAR|GRAY||..\SRG_logic.fgi|280|60|SString|
R|VAR|GRAY||..\SRG_logic.fgi|408|100|SString|
R|VAR|GRAY||..\SRG_logic.fgi|408|60|SString|
R|VAR|GRAY||..\SRG_logic.fgi|537|100|SString|
R|VAR|GRAY||..\SRG_logic.fgi|537|60|SString|
R|VAR|20SRG10CF003XQ01_input|0|..\SRG_vlv.fgi|26|644|Gidra:dat_ana_2_handler|
O|VAR|20SRG10CF003XQ01_input||..\SRG_init.fgi|72|316|Socket|
O|VAR|20SRG10AA284YA21||..\SRG_logic.fgi|397.5|264|Socket|
R|VAR|20SRG10AA284YA21|-1|..\SRG_vlv.fgi|422|378|Gidra:klapan_man|
R|VAR|20SRG10CU014XQ01_input|0|..\SRG_vlv.fgi|502.5|452|Gidra:dat_ana_2_handler|
O|VAR|20SRG10CU014XQ01_input||..\SRG_init_1.fgi|74|77|Socket|
R|VAR|20SRG10CQ019XQ01_input|0|..\SRG_vlv.fgi|112.5|210|Gidra:dat_ana_2_handler|
O|VAR|20SRG10CQ019XQ01_input||..\SRG_init_1.fgi|74|45|Socket|
O|VAR|20SRG10CQ007XQ01|-1|..\SRG_vlv.fgi|112.5|490|Gidra:dat_ana_2_handler|
R|VAR|20SRG10CQ007XQ01|-1|..\SRG_vlv.fgi|623.75|253.98|Gidra:reg_ras_man|
R|VAR|20SRG10CF004XQ01_input|0|..\SRG_vlv.fgi|55|644|Gidra:dat_ana_2_handler|
O|VAR|20SRG10CF004XQ01_input||..\SRG_init.fgi|72|321|Socket|
R|VAR|20SRG10CU015XQ01_input|0|..\SRG_vlv.fgi|502.5|439|Gidra:dat_ana_2_handler|
O|VAR|20SRG10CU015XQ01_input||..\SRG_init_1.fgi|74|69|Socket|
R|VAR|20SRG10AA244XH51||..\SRG_logic.fgi|210.5|161|Socket|
O|VAR|20SRG10AA244XH51|0|..\SRG_vlv.fgi|435|629|Gidra:klapan_man|
R|VAR|20SRG10CU040XQ02_input|0|..\SRG_vlv.fgi|625.5|439|Gidra:dat_ana_2_handler|
O|VAR|20SRG10CU040XQ02_input||..\SRG_init_1.fgi|248|105|Socket|
O|VAR|20SRG10AA107YA21||..\SRG_logic.fgi|173.5|239|Socket|
R|VAR|20SRG10AA107YA21|-1|..\SRG_vlv.fgi|325|749|Gidra:klapan_man|
O|VAR|20SRG10AA107YA22||..\SRG_logic.fgi|79|217|Socket|
R|VAR|20SRG10AA107YA22|-1|..\SRG_vlv.fgi|325|749|Gidra:klapan_man|
R|VAR|20SRG10AA312XH51||..\SRG_logic.fgi|450.5|165|Socket|
O|VAR|20SRG10AA312XH51|0|..\SRG_vlv.fgi|620|605|Gidra:klapan_man|
R|VAR|20SRG10AA312XH52||..\SRG_logic.fgi|450.5|138|Socket|
O|VAR|20SRG10AA312XH52|1|..\SRG_vlv.fgi|620|605|Gidra:klapan_man|
R|VAR|20SRG10CF005XQ01_input|0|..\SRG_vlv.fgi|26|630|Gidra:dat_ana_2_handler|
O|VAR|20SRG10CF005XQ01_input||..\SRG_init.fgi|72|281|Socket|
R|VAR|20SRG10CU016XQ01_input|0|..\SRG_vlv.fgi|501.5|276|Gidra:dat_ana_2_handler|
O|VAR|20SRG10CU016XQ01_input||..\SRG_init_1.fgi|162|181|Socket|
O|VAR|20SRG10AA244YA21||..\SRG_logic.fgi|286.5|203|Socket|
R|VAR|20SRG10AA244YA21|-1|..\SRG_vlv.fgi|435|629|Gidra:klapan_man|
R|VAR|20SRG10CU041XQ02_input|0|..\SRG_vlv.fgi|675.5|491|Gidra:dat_ana_2_handler|
O|VAR|20SRG10CU041XQ02_input||..\SRG_init_1.fgi|248|97|Socket|
O|VAR|20SRG10AA312YA21||..\SRG_logic.fgi|526.5|207|Socket|
R|VAR|20SRG10AA312YA21|-1|..\SRG_vlv.fgi|620|605|Gidra:klapan_man|
O|VAR|20SRG10AA312YA22||..\SRG_logic.fgi|529.5|161|Socket|
R|VAR|20SRG10AA312YA22|-1|..\SRG_vlv.fgi|620|605|Gidra:klapan_man|
R|VAR|20SRG10CF006XQ01_input|0|..\SRG_vlv.fgi|55|630|Gidra:dat_ana_2_handler|
O|VAR|20SRG10CF006XQ01_input||..\SRG_init.fgi|72|286|Socket|
R|VAR|20SRG10CU017XQ01_input|0|..\SRG_vlv.fgi|501.5|263|Gidra:dat_ana_2_handler|
O|VAR|20SRG10CU017XQ01_input||..\SRG_init_1.fgi|162|173|Socket|
R|VAR|20SRG10CP023XQ01||..\SRG_logic.fgi|117|192|Socket|
R|VAR|20SRG10CP023XQ01||..\SRG_logic.fgi|31|107|Socket|
R|VAR|20SRG10CP023XQ01|-1|..\SRG_logic.fgi|174.75|297.98|Gidra:reg_ras_man|
O|VAR|20SRG10CP023XQ01|-1|..\SRG_vlv.fgi|197|504|Gidra:dat_ana_patm_handler|
R|VAR|20SRG10AN001|-1|..\SRG_vlv.fgi|37|773|Gidra:pump2_handler|
O|VAR|20SRG10AN001|-1|..\SRG_vlv.fgi|37|773|Gidra:pump2_handler|
R|VAR|20SRG10AN002|-1|..\SRG_vlv.fgi|50|773|Gidra:pump2_handler|
O|VAR|20SRG10AN002|-1|..\SRG_vlv.fgi|50|773|Gidra:pump2_handler|
R|VAR|20SRG10AN003|-1|..\SRG_vlv.fgi|64|773|Gidra:pump2_handler|
O|VAR|20SRG10AN003|-1|..\SRG_vlv.fgi|64|773|Gidra:pump2_handler|
R|VAR|20SRG10AN004|-1|..\SRG_vlv.fgi|78|773|Gidra:pump2_handler|
O|VAR|20SRG10AN004|-1|..\SRG_vlv.fgi|78|773|Gidra:pump2_handler|
R|VAR|20SRG10AN005|-1|..\SRG_vlv.fgi|92|773|Gidra:pump2_handler|
O|VAR|20SRG10AN005|-1|..\SRG_vlv.fgi|92|773|Gidra:pump2_handler|
R|VAR|20SRG10AN006|-1|..\SRG_vlv.fgi|106|773|Gidra:pump2_handler|
O|VAR|20SRG10AN006|-1|..\SRG_vlv.fgi|106|773|Gidra:pump2_handler|
R|VAR|20SRG10AN007|-1|..\SRG_vlv.fgi|120|773|Gidra:pump2_handler|
O|VAR|20SRG10AN007|-1|..\SRG_vlv.fgi|120|773|Gidra:pump2_handler|
R|VAR|20SRG10AN008|-1|..\SRG_vlv.fgi|134|773|Gidra:pump2_handler|
O|VAR|20SRG10AN008|-1|..\SRG_vlv.fgi|134|773|Gidra:pump2_handler|
R|VAR|20SRG10AN009|-1|..\SRG_vlv.fgi|148|773|Gidra:pump2_handler|
O|VAR|20SRG10AN009|-1|..\SRG_vlv.fgi|148|773|Gidra:pump2_handler|
R|VAR|20SRG10AN010|-1|..\SRG_vlv.fgi|162|773|Gidra:pump2_handler|
O|VAR|20SRG10AN010|-1|..\SRG_vlv.fgi|162|773|Gidra:pump2_handler|
R|VAR|20SRG10AN011|-1|..\SRG_vlv.fgi|176|773|Gidra:pump2_handler|
O|VAR|20SRG10AN011|-1|..\SRG_vlv.fgi|176|773|Gidra:pump2_handler|
R|VAR|20SRG10AN012|-1|..\SRG_vlv.fgi|37|747|Gidra:pump2_handler|
O|VAR|20SRG10AN012|-1|..\SRG_vlv.fgi|37|747|Gidra:pump2_handler|
R|VAR|20SRG10AN013|-1|..\SRG_vlv.fgi|50|747|Gidra:pump2_handler|
O|VAR|20SRG10AN013|-1|..\SRG_vlv.fgi|50|747|Gidra:pump2_handler|
R|VAR|20SRG10AN014|-1|..\SRG_vlv.fgi|64|747|Gidra:pump2_handler|
O|VAR|20SRG10AN014|-1|..\SRG_vlv.fgi|64|747|Gidra:pump2_handler|
R|VAR|20SRG10AN015|-1|..\SRG_vlv.fgi|78|747|Gidra:pump2_handler|
O|VAR|20SRG10AN015|-1|..\SRG_vlv.fgi|78|747|Gidra:pump2_handler|
R|VAR|20SRG10AN016|-1|..\SRG_vlv.fgi|92|747|Gidra:pump2_handler|
O|VAR|20SRG10AN016|-1|..\SRG_vlv.fgi|92|747|Gidra:pump2_handler|
R|VAR|20SRG10AN017|-1|..\SRG_vlv.fgi|106|747|Gidra:pump2_handler|
O|VAR|20SRG10AN017|-1|..\SRG_vlv.fgi|106|747|Gidra:pump2_handler|
R|VAR|20SRG10AN018|-1|..\SRG_vlv.fgi|120|747|Gidra:pump2_handler|
O|VAR|20SRG10AN018|-1|..\SRG_vlv.fgi|120|747|Gidra:pump2_handler|
R|VAR|20SRG10AN019|-1|..\SRG_vlv.fgi|134|747|Gidra:pump2_handler|
O|VAR|20SRG10AN019|-1|..\SRG_vlv.fgi|134|747|Gidra:pump2_handler|
R|VAR|20SRG10AN021|-1|..\SRG_vlv.fgi|822|289.23|Gidra:pump_handler|
O|VAR|20SRG10AN021|-1|..\SRG_vlv.fgi|822|289.23|Gidra:pump_handler|
R|VAR|20SRG10CU042XQ02_input|0|..\SRG_vlv.fgi|675.5|478|Gidra:dat_ana_2_handler|
O|VAR|20SRG10CU042XQ02_input||..\SRG_init_1.fgi|248|89|Socket|
O|VAR|SRG10_PSS2_automatic_mode||..\SRG_logic.fgi|424|379|Socket|
R|VAR|SRG10_PSS2_automatic_mode||..\SRG_logic.fgi|369|315|Socket|
R|VAR|20SRG10CQ016XQ04_input|0|..\SRG_vlv.fgi|366.5|588|Gidra:dat_ana_2_handler|
O|VAR|20SRG10CQ016XQ04_input||..\SRG_init_1.fgi|74|49|Socket|
R|VAR|20SRG10CF007XQ01_input|0|..\SRG_vlv.fgi|26|616|Gidra:dat_ana_2_handler|
O|VAR|20SRG10CF007XQ01_input||..\SRG_init.fgi|72|246|Socket|
R|VAR|20SRG10CU018XQ01_input|0|..\SRG_vlv.fgi|501.5|250|Gidra:dat_ana_2_handler|
O|VAR|20SRG10CU018XQ01_input||..\SRG_init_1.fgi|162|165|Socket|
X|SOCK|SRG.20SRG10AA248YA21_1||..\SRG_logic.fgi|283.5|109|Socket|
X|SOCK|SRG.20SRG10AA248YA21_1||..\SRG_logic.fgi|210.5|51|Socket|
X|SOCK|SRG.20SRG10AA248YA21_2||..\SRG_logic.fgi|411.5|109|Socket|
X|SOCK|SRG.20SRG10AA248YA21_2||..\SRG_logic.fgi|210.5|49|Socket|
X|SOCK|SRG.20SRG10AA248YA21_3||..\SRG_logic.fgi|540.5|109|Socket|
X|SOCK|SRG.20SRG10AA248YA21_3||..\SRG_logic.fgi|210.5|47|Socket|
X|SOCK|SRG.20SRG10AA248YA22_1||..\SRG_logic.fgi|283.5|76|Socket|
X|SOCK|SRG.20SRG10AA248YA22_1||..\SRG_logic.fgi|210.5|42|Socket|
X|SOCK|SRG.20SRG10AA248YA22_2||..\SRG_logic.fgi|411.5|76|Socket|
X|SOCK|SRG.20SRG10AA248YA22_2||..\SRG_logic.fgi|210.5|40|Socket|
X|SOCK|SRG.20SRG10AA248YA22_3||..\SRG_logic.fgi|540.5|76|Socket|
X|SOCK|SRG.20SRG10AA248YA22_3||..\SRG_logic.fgi|210.5|38|Socket|
R|VAR|20SRG10CU043XQ02_input|0|..\SRG_vlv.fgi|675.5|465|Gidra:dat_ana_2_handler|
O|VAR|20SRG10CU043XQ02_input||..\SRG_init_1.fgi|248|81|Socket|
R|VAR|20SRG10CQ017XQ04_input|0|..\SRG_vlv.fgi|366.5|546|Gidra:dat_ana_2_handler|
O|VAR|20SRG10CQ017XQ04_input||..\SRG_init_1.fgi|162|49|Socket|
R|VAR|20SRG10CF008XQ01_input|0|..\SRG_vlv.fgi|55|616|Gidra:dat_ana_2_handler|
O|VAR|20SRG10CF008XQ01_input||..\SRG_init.fgi|72|251|Socket|
R|VAR|20SRG10CU019XQ01_input|0|..\SRG_vlv.fgi|501.5|237|Gidra:dat_ana_2_handler|
O|VAR|20SRG10CU019XQ01_input||..\SRG_init_1.fgi|162|157|Socket|
R|VAR|20SRG10CU044XQ02_input|0|..\SRG_vlv.fgi|675.5|452|Gidra:dat_ana_2_handler|
O|VAR|20SRG10CU044XQ02_input||..\SRG_init_1.fgi|248|73|Socket|
R|VAR|20SRG10CF009XQ01_input|0|..\SRG_vlv.fgi|26|602|Gidra:dat_ana_2_handler|
O|VAR|20SRG10CF009XQ01_input||..\SRG_init.fgi|72|211|Socket|
R|VAR|20SRG10CU045XQ02_input|0|..\SRG_vlv.fgi|675.5|439|Gidra:dat_ana_2_handler|
O|VAR|20SRG10CU045XQ02_input||..\SRG_init_1.fgi|248|65|Socket|
R|VAR|20SRG10CQ020XQ01_input|0|..\SRG_vlv.fgi|112.5|196|Gidra:dat_ana_2_handler|
O|VAR|20SRG10CQ020XQ01_input||..\SRG_init_1.fgi|162|45|Socket|
O|VAR|20SRG10AA125YA21||..\SRG_logic.fgi|173.5|185|Socket|
R|VAR|20SRG10AA125YA21|-1|..\SRG_vlv.fgi|255|723|Gidra:klapan_man|
O|VAR|20SRG10AA125YA22||..\SRG_logic.fgi|79|91|Socket|
R|VAR|20SRG10AA125YA22|-1|..\SRG_vlv.fgi|255|723|Gidra:klapan_man|
I|SOCK|20SRG10CP011XQ01||..\SRG_logic.fgi|117|228|Socket|
I|SOCK|20SRG10CP011XQ01||..\SRG_logic.fgi|31|191|Socket|
R|VAR|20SRG10CP021XQ01_up_alarm_setpoint||..\SRG_logic.fgi|120|196|Socket|
R|VAR|20SRG10CP021XQ01_up_alarm_setpoint||..\SRG_logic.fgi|34|119|Socket|
O|VAR|20SRG10CP021XQ01_up_alarm_setpoint|-1|..\SRG_vlv.fgi|197|518|Gidra:dat_ana_patm_handler|
R|VAR|20SRG10AA291XH51||..\SRG_logic.fgi|329.5|191|Socket|
O|VAR|20SRG10AA291XH51|0|..\SRG_vlv.fgi|450|402|Gidra:klapan_man|
R|VAR|20SRG10AA328XH51||..\SRG_logic.fgi|450.5|179|Socket|
O|VAR|20SRG10AA328XH51|0|..\SRG_vlv.fgi|732|629|Gidra:klapan_man|
O|VAR|20SRG10AA291YA21||..\SRG_logic.fgi|397.5|236|Socket|
R|VAR|20SRG10AA291YA21|-1|..\SRG_vlv.fgi|450|402|Gidra:klapan_man|
I|SOCK|20SRG10CP009XQ01||..\SRG_logic.fgi|117|234|Socket|
I|SOCK|20SRG10CP009XQ01||..\SRG_logic.fgi|31|205|Socket|
O|VAR|20SRG10AA328YA21||..\SRG_logic.fgi|518.5|224|Socket|
R|VAR|20SRG10AA328YA21|-1|..\SRG_vlv.fgi|732|629|Gidra:klapan_man|
R|VAR|20SRG10CP001XQ01||..\SRG_logic.fgi|117|258|Socket|
R|VAR|20SRG10CP001XQ01||..\SRG_logic.fgi|31|267|Socket|
R|VAR|20SRG10CP001XQ01|-1|..\SRG_logic.fgi|150.75|384.98|Gidra:reg_ras_man|
O|VAR|20SRG10CP001XQ01|-1|..\SRG_vlv.fgi|197|658|Gidra:dat_ana_patm_handler|
O|VAR|20SRG10CQ014XQ01|-1|..\SRG_vlv.fgi|112.5|294|Gidra:dat_ana_2_handler|
R|VAR|20SRG10CQ014XQ01|-1|..\SRG_vlv.fgi|671.75|252.98|Gidra:reg_ras_man|
R|VAR|20SRG10CQ014XQ01|-1|..\SRG_vlv.fgi|722.75|355.98|Gidra:reg_ras_man|
R|VAR|20SRG10CU020XQ01_input|0|..\SRG_vlv.fgi|501.5|224|Gidra:dat_ana_2_handler|
O|VAR|20SRG10CU020XQ01_input||..\SRG_init_1.fgi|162|149|Socket|
R|VAR|20SRG10AA251XH51||..\SRG_logic.fgi|210.5|215|Socket|
O|VAR|20SRG10AA251XH51|0|..\SRG_vlv.fgi|449|581|Gidra:klapan_man|
R|VAR|20SRG10AA289XH51||..\SRG_logic.fgi|329.5|199|Socket|
O|VAR|20SRG10AA289XH51|0|..\SRG_vlv.fgi|436|354|Gidra:klapan_man|
O|VAR|SRG1_tech_mode||..\SRG_logic.fgi|82|344|Socket|
R|VAR|SRG1_tech_mode||..\SRG_logic.fgi|94|297|Socket|
R|VAR|SRG1_tech_mode|-1|..\SRG_vlv.fgi|822|289.23|Gidra:pump_handler|
O|VAR|20SRG10AA114YA21||..\SRG_logic.fgi|79|156|Socket|
R|VAR|20SRG10AA114YA21|-1|..\SRG_vlv.fgi|423|749|Gidra:klapan_man|
R|VAR|20SRG10CF010XQ01_input|0|..\SRG_vlv.fgi|55|602|Gidra:dat_ana_2_handler|
O|VAR|20SRG10CF010XQ01_input||..\SRG_init.fgi|72|216|Socket|
R|VAR|20SRG10CU021XQ01_input|0|..\SRG_vlv.fgi|501.5|211|Gidra:dat_ana_2_handler|
O|VAR|20SRG10CU021XQ01_input||..\SRG_init_1.fgi|162|141|Socket|
O|VAR|20SRG10AA251YA21||..\SRG_logic.fgi|278.5|260|Socket|
R|VAR|20SRG10AA251YA21|-1|..\SRG_vlv.fgi|449|581|Gidra:klapan_man|
O|VAR|20SRG10AA289YA21||..\SRG_logic.fgi|397.5|244|Socket|
R|VAR|20SRG10AA289YA21|-1|..\SRG_vlv.fgi|436|354|Gidra:klapan_man|
R|VAR|20SRG10CP027XQ01_up_alarm_setpoint||..\SRG_logic.fgi|120|178|Socket|
R|VAR|20SRG10CP027XQ01_up_alarm_setpoint||..\SRG_logic.fgi|34|77|Socket|
O|VAR|20SRG10CP027XQ01_up_alarm_setpoint|-1|..\SRG_vlv.fgi|197|476|Gidra:dat_ana_patm_handler|
R|VAR|20SRG10CF011XQ01_input|0|..\SRG_vlv.fgi|26|588|Gidra:dat_ana_2_handler|
O|VAR|20SRG10CF011XQ01_input||..\SRG_init.fgi|72|176|Socket|
O|VAR|20SRG10CF052XQ01|-1|..\SRG_vlv.fgi|452.5|556|Gidra:dat_ana_2_handler|
R|VAR|20SRG10CF052XQ01|-1|..\SRG_vlv.fgi|809.75|404.98|Gidra:reg_ras_man|
R|VAR|20SRG10CU022XQ01_input|0|..\SRG_vlv.fgi|501.5|198|Gidra:dat_ana_2_handler|
O|VAR|20SRG10CU022XQ01_input||..\SRG_init_1.fgi|162|133|Socket|
I|SOCK|20SRG10CP025XQ01_up_alarm_setpoint||..\SRG_logic.fgi|120|184|Socket|
I|SOCK|20SRG10CP025XQ01_up_alarm_setpoint||..\SRG_logic.fgi|34|91|Socket|
R|VAR|20SRG10AA249XH51||..\SRG_logic.fgi|210.5|223|Socket|
O|VAR|20SRG10AA249XH51|0|..\SRG_vlv.fgi|421|581|Gidra:klapan_man|
R|VAR|20SRG10CF012XQ01_input|0|..\SRG_vlv.fgi|55|588|Gidra:dat_ana_2_handler|
O|VAR|20SRG10CF012XQ01_input||..\SRG_init.fgi|72|181|Socket|
R|VAR|20SRG10CU023XQ01_input|0|..\SRG_vlv.fgi|451.5|276|Gidra:dat_ana_2_handler|
O|VAR|20SRG10CU023XQ01_input||..\SRG_init_1.fgi|162|125|Socket|
R|VAR|20SRG10AA317XH51||..\SRG_logic.fgi|450.5|223|Socket|
O|VAR|20SRG10AA317XH51|0|..\SRG_vlv.fgi|690|605|Gidra:klapan_man|
O|VAR|20SRG10AA249YA21||..\SRG_logic.fgi|278.5|268|Socket|
R|VAR|20SRG10AA249YA21|-1|..\SRG_vlv.fgi|421|581|Gidra:klapan_man|
R|VAR|20SRG10CF013XQ01_input|0|..\SRG_vlv.fgi|26|574|Gidra:dat_ana_2_handler|
O|VAR|20SRG10CF013XQ01_input||..\SRG_init.fgi|72|141|Socket|
R|VAR|20SRG10CU024XQ01_input|0|..\SRG_vlv.fgi|451.5|263|Gidra:dat_ana_2_handler|
O|VAR|20SRG10CU024XQ01_input||..\SRG_init_1.fgi|162|117|Socket|
O|VAR|20SRG10AA317YA21||..\SRG_logic.fgi|518.5|268|Socket|
R|VAR|20SRG10AA317YA21|-1|..\SRG_vlv.fgi|690|605|Gidra:klapan_man|
O|VAR|20SRG10CQ003XQ01|-1|..\SRG_vlv.fgi|112.5|602|Gidra:dat_ana_2_handler|
R|VAR|20SRG10CQ003XQ01|-1|..\SRG_vlv.fgi|621.75|357.98|Gidra:reg_ras_man|
I|SOCK|20SRG10AA248XH51||..\SRG_logic.fgi|210.5|98|Socket|
I|SOCK|20SRG10AA248XH51||..\SRG_logic.fgi|338.5|98|Socket|
I|SOCK|20SRG10AA248XH51||..\SRG_logic.fgi|467.5|98|Socket|
I|SOCK|20SRG10AA248XH52||..\SRG_logic.fgi|210.5|65|Socket|
I|SOCK|20SRG10AA248XH52||..\SRG_logic.fgi|338.5|65|Socket|
I|SOCK|20SRG10AA248XH52||..\SRG_logic.fgi|467.5|65|Socket|
R|VAR|20SRG10CF014XQ01_input|0|..\SRG_vlv.fgi|55|574|Gidra:dat_ana_2_handler|
O|VAR|20SRG10CF014XQ01_input||..\SRG_init.fgi|72|146|Socket|
R|VAR|20SRG10CU025XQ01_input|0|..\SRG_vlv.fgi|451.5|250|Gidra:dat_ana_2_handler|
O|VAR|20SRG10CU025XQ01_input||..\SRG_init_1.fgi|162|109|Socket|
R|VAR|20SRG10AA278XH51||..\SRG_logic.fgi|329.5|165|Socket|
O|VAR|20SRG10AA278XH51|0|..\SRG_vlv.fgi|464|402|Gidra:klapan_man|
R|VAR|20SRG10AA278XH52||..\SRG_logic.fgi|329.5|138|Socket|
O|VAR|20SRG10AA278XH52|1|..\SRG_vlv.fgi|464|402|Gidra:klapan_man|
O|VAR|20SRG10AA103YA21||..\SRG_logic.fgi|173.5|251|Socket|
R|VAR|20SRG10AA103YA21|-1|..\SRG_vlv.fgi|269|749|Gidra:klapan_man|
O|VAR|20SRG10AA103YA22||..\SRG_logic.fgi|79|245|Socket|
R|VAR|20SRG10AA103YA22|-1|..\SRG_vlv.fgi|269|749|Gidra:klapan_man|
R|VAR|20SRG10CF015XQ01_input|0|..\SRG_vlv.fgi|26|560|Gidra:dat_ana_2_handler|
O|VAR|20SRG10CF015XQ01_input||..\SRG_init.fgi|164|369|Socket|
R|VAR|20SRG10CU026XQ01_input|0|..\SRG_vlv.fgi|451.5|237|Gidra:dat_ana_2_handler|
O|VAR|20SRG10CU026XQ01_input||..\SRG_init_1.fgi|162|101|Socket|
O|VAR|20SRG10AA278YA21||..\SRG_logic.fgi|405.5|207|Socket|
R|VAR|20SRG10AA278YA21|-1|..\SRG_vlv.fgi|464|402|Gidra:klapan_man|
O|VAR|20SRG10AA278YA22||..\SRG_logic.fgi|408.5|161|Socket|
R|VAR|20SRG10AA278YA22|-1|..\SRG_vlv.fgi|464|402|Gidra:klapan_man|
I|SOCK|20SRG10CP027XQ01||..\SRG_logic.fgi|117|180|Socket|
I|SOCK|20SRG10CP027XQ01||..\SRG_logic.fgi|31|79|Socket|
R|VAR|20SRG10CF016XQ01_input|0|..\SRG_vlv.fgi|55|560|Gidra:dat_ana_2_handler|
O|VAR|20SRG10CF016XQ01_input||..\SRG_init.fgi|164|374|Socket|
R|VAR|20SRG10CU027XQ01_input|0|..\SRG_vlv.fgi|451.5|224|Gidra:dat_ana_2_handler|
O|VAR|20SRG10CU027XQ01_input||..\SRG_init_1.fgi|162|93|Socket|
