X|SOCK|KPJ.KPJ20_sliv||..\KPJ.fgi|862|231|Socket|
X|SOCK|KPJ.KPJ20_sliv||..\KPJ.fgi|689|105|Socket|
X|SOCK|KPJ.HPO_KPJ11||..\KPJ.fgi|369|439|Socket|
X|SOCK|KPJ.HPO_KPJ11||..\KPJ_hpo.fgi|363.5|203|Socket|
X|SOCK|KPJ.HPO_KPJ12||..\KPJ.fgi|602|444|Socket|
X|SOCK|KPJ.HPO_KPJ12||..\KPJ_hpo.fgi|363.5|167|Socket|
X|SOCK|KPJ.KPJ50_sliv||..\KPJ.fgi|822|64|Socket|
X|SOCK|KPJ.KPJ50_sliv||..\KPJ.fgi|691|123|Socket|
X|SOCK|KPJ.KPJ21AT001sduvka||..\KPJ.fgi|387.5|763|Socket|
X|SOCK|KPJ.KPJ21AT001sduvka||..\KPJ20ATsealing.fgi|27|422.5|Socket|
X|SOCK|KPJ.KPJ50_sduvka||..\KPJ.fgi|917|119|Socket|
X|SOCK|KPJ.KPJ50_sduvka||..\KPJ.fgi|132|661|Socket|
R|VAR| 5e5||..\KPJ.fgi|1305|719|SString|
R|VAR| 5e5||..\KPJ.fgi|1342|668|SString|
X|SOCK|KPJ.KPJ70_KPJ11||..\KPJ.fgi|394|421|Socket|
X|SOCK|KPJ.KPJ70_KPJ11||..\KPJ.fgi|881|177|Socket|
X|SOCK|KPJ.KPJ70_KPJ12||..\KPJ.fgi|634|428|Socket|
X|SOCK|KPJ.KPJ70_KPJ12||..\KPJ.fgi|881|157|Socket|
X|SOCK|KPJ.KPJ22seal_return||..\KPJ20ATsealing.fgi|155.5|234|Socket|
X|SOCK|KPJ.KPJ22seal_return||..\KPJ20ATsealing.fgi|230.5|399|Socket|
X|SOCK|KPJ.KPJ21promyvka||..\KPJ.fgi|244.5|793|Socket|
X|SOCK|KPJ.KPJ21promyvka||..\KPJ20ATsealing.fgi|68|463.5|Socket|
X|SOCK|KPJ.KPJ20_HPO||..\KPJ.fgi|455.5|230|Socket|
X|SOCK|KPJ.KPJ20_HPO||..\KPJ_hpo.fgi|13.5|241|Socket|
X|SOCK|KPJ.KPJ21_KPJ20suct||..\KPJ.fgi|295.5|167|Socket|
X|SOCK|KPJ.KPJ21_KPJ20suct||..\KPJ20ATsealing.fgi|18.5|344|Socket|
X|SOCK|KPJ.KPJ22_KPJ20suct||..\KPJ.fgi|295.5|189|Socket|
X|SOCK|KPJ.KPJ22_KPJ20suct||..\KPJ20ATsealing.fgi|19.5|190|Socket|
X|SOCK|KPJ.KPJ30_KPJ11||..\KPJ.fgi|1002|607|Socket|
X|SOCK|KPJ.KPJ30_KPJ11||..\KPJ.fgi|369|457|Socket|
X|SOCK|KPJ.KPJ30_KPJ12||..\KPJ.fgi|1031|607|Socket|
X|SOCK|KPJ.KPJ30_KPJ12||..\KPJ.fgi|602|462|Socket|
